6032832581184,16,Prepaid
6032832579784,17,Prepaid
6032832579384,18,Prepaid
6032832578784,19,Prepaid
6032832576184,20,Prepaid
6032832575784,21,Prepaid
6031584113584,22,Prepaid
6031584112384,23,Prepaid
6031584106384,24,Prepaid
6031584106184,25,Prepaid
6031584104384,26,Prepaid
6031584101584,27,Prepaid
6027812304984,28,Prepaid
6027812296984,29,Prepaid
6027812296184,30,Prepaid
6027812294784,31,Prepaid
6027812294584,32,Prepaid
6027812293984,33,Prepaid
6027812285184,34,Prepaid
6027812284184,35,Prepaid
6027812283584,36,Prepaid
6027812282184,37,Prepaid
6027812274784,38,Prepaid
6027812274384,39,Prepaid
6027812273384,40,Prepaid
6027812271184,41,Prepaid
6027811952184,42,Prepaid
6027811958784,43,Prepaid
6027811944384,44,Prepaid
6027811957784,45,Prepaid
6027811951184,46,Prepaid
6027811958184,47,Prepaid
6027811961384,48,Prepaid
6027811949784,49,Prepaid
6027811949384,50,Prepaid
6025145028384,51,Prepaid
6025145013184,52,Prepaid
6025144983984,53,Prepaid
6025144979784,54,Prepaid
6025144949584,55,Prepaid
6025145011784,56,Prepaid
6025145024184,57,Prepaid
6025145016984,58,Prepaid
6025145025784,59,Prepaid
6025145017184,60,Prepaid
6025144910784,61,Prepaid
6025145024584,62,Prepaid
6025144947984,63,Prepaid
6025144948184,64,Prepaid
6025144912184,65,Prepaid
6025144899584,66,Prepaid
6025144931184,67,Prepaid
6025144972184,68,Prepaid
6025144931384,69,Prepaid
6025144941784,70,Prepaid
6025144922784,71,Prepaid
6025144921184,72,Prepaid
6025144973984,73,Prepaid
6025144966384,74,Prepaid
6025144902384,75,Prepaid
6025144974984,76,Prepaid
6025144908984,77,Prepaid
6025144985984,78,Prepaid
6025144950184,79,Prepaid
6025144984184,80,Prepaid
6025144941984,81,Prepaid
6025144993984,82,Prepaid
6025144970984,83,Prepaid
6025144932384,84,Prepaid
6025144949984,85,Prepaid
6025144937584,86,Prepaid
6025144922584,87,Prepaid
6025144911784,88,Prepaid
6025144911184,89,Prepaid
6025144942584,90,Prepaid
6024067783584,91,Prepaid
6024067764584,92,Prepaid
6024067750784,93,Prepaid
6024067723584,94,Prepaid
6024067714184,95,Prepaid
6024067805184,96,Prepaid
6024067815984,97,Prepaid
6024067799784,98,Prepaid
6024067816984,99,Prepaid
6024067816184,100,Prepaid
6024067785384,101,Prepaid
6024067802584,102,Prepaid
6024067759984,103,Prepaid
6024067801384,104,Prepaid
6024067762384,105,Prepaid
6024067739584,106,Prepaid
6024067740184,107,Prepaid
6024067787984,108,Prepaid
6024067818384,109,Prepaid
6024067699384,110,Prepaid
6024067758184,111,Prepaid
6024067728984,112,Prepaid
6024067723784,113,Prepaid
6024067784384,114,Prepaid
6024067735784,115,Prepaid
6024067757984,116,Prepaid
6024067761584,117,Prepaid
6024067750584,118,Prepaid
6024067699784,119,Prepaid
6024067758384,120,Prepaid
6024067776584,121,Prepaid
6024067713984,122,Prepaid
6024067755984,123,Prepaid
6024067714984,124,Prepaid
6024067710384,125,Prepaid
6024067739784,126,Prepaid
6024067725184,127,Prepaid
6024067701184,128,Prepaid
6024067747784,129,Prepaid
6024067705984,130,Prepaid
6021282940584,131,Prepaid
6021282932584,132,Prepaid
6021282929184,133,Prepaid
6021282902584,134,Prepaid
6021282913184,135,Prepaid
6021282954384,136,Prepaid
6021282939184,137,Prepaid
6021282920584,138,Prepaid
6021282917184,139,Prepaid
6021282926584,140,Prepaid
6021282905984,141,Prepaid
6021282930184,142,Prepaid
6021282907584,143,Prepaid
6021282899184,144,Prepaid
6021282948984,145,Prepaid
6021282896584,146,Prepaid
6021097384784,147,Prepaid
6021076324584,148,Prepaid
6021076335984,149,Prepaid
6021076321184,150,Prepaid
6021076327384,151,Prepaid
6021076328584,152,Prepaid
6021076332984,153,Prepaid
6033921685494,568,Prepaid
6033921681294,569,Prepaid
6033921678894,570,Prepaid
6033921666894,571,Prepaid
6033921705894,572,Prepaid
6033921695694,573,Prepaid
6033921683694,574,Prepaid
6033921683094,575,Prepaid
6033921677294,576,Prepaid
6033921665294,577,Prepaid
6033921711294,578,Prepaid
6033921705694,579,Prepaid
6033921703294,580,Prepaid
6033921682894,581,Prepaid
6033921756094,582,Prepaid
6033921753294,583,Prepaid
6033921751294,584,Prepaid
6033921742294,585,Prepaid
6033921742094,586,Prepaid
6033921740494,587,Prepaid
6033921740294,588,Prepaid
6033921740094,589,Prepaid
6033921738894,590,Prepaid
6033921738694,591,Prepaid
6033921717294,592,Prepaid
6033921715494,593,Prepaid
6033921714894,594,Prepaid
6033921713694,595,Prepaid
6033921679094,596,Prepaid
6033921664894,597,Prepaid
6033921664494,598,Prepaid
6033921662494,599,Prepaid
6033921658894,600,Prepaid
6033921658094,601,Prepaid
6033921650094,602,Prepaid
6033921649894,603,Prepaid
6033921647294,604,Prepaid
6033921646294,605,Prepaid
6033921643694,606,Prepaid
6033921638094,607,Prepaid
6033921637894,608,Prepaid
6033921636094,609,Prepaid
6033921451694,610,Prepaid
6033921457494,611,Prepaid
6033921138894,612,Prepaid
6033921464294,613,Prepaid
6033921483494,614,Prepaid
6033921410894,615,Prepaid
6033921450694,616,Prepaid
6033921139494,617,Prepaid
6033921139894,618,Prepaid
6033921411094,619,Prepaid
6033921137494,620,Prepaid
6033921453094,621,Prepaid
6033921138094,622,Prepaid
6033921414894,623,Prepaid
6033854794494,630,Prepaid
6033854796294,631,Prepaid
6033854808894,632,Prepaid
6033854805094,633,Prepaid
6033854794094,634,Prepaid
6033854795494,635,Prepaid
6033640046894,636,Prepaid
6033604281694,637,Prepaid
6033604291094,638,Prepaid
6033604281894,639,Prepaid
6033604281094,640,Prepaid
6033604282094,641,Prepaid
6033604289894,642,Prepaid
6033604289694,643,Prepaid
6033604181294,644,Prepaid
6033603839694,645,Prepaid
6033603847694,646,Prepaid
6033603847494,647,Prepaid
6033603847294,648,Prepaid
6033603846894,649,Prepaid
6033603839494,650,Prepaid
6033602719894,651,Prepaid
6031930418494,658,Prepaid
6031930416894,659,Prepaid
6031930416094,660,Prepaid
6031930415694,661,Prepaid
6031930415494,662,Prepaid
6030226746694,663,Prepaid
6029661052094,664,Prepaid
6029661049694,665,Prepaid
6029661048894,666,Prepaid
6029661039494,667,Prepaid
6029661038494,668,Prepaid
6020489272497,879,Prepaid
6020514189697,880,Prepaid
6021855877097,1151,Prepaid
6022372548297,1152,Prepaid
6021855895297,1153,Prepaid
6022372551297,1154,Prepaid
6022372554297,1155,Prepaid
6022372560097,1156,Prepaid
6022484352097,1158,Prepaid
6021855884297,1159,Prepaid
6021855888097,1160,Prepaid
6021855891897,1161,Prepaid
6021855880697,1162,Prepaid
6022279850897,1163,Prepaid
6022373424497,1164,Prepaid
6022279853497,1165,Prepaid
6022373427297,1166,Prepaid
6022373429697,1167,Prepaid
6022373432097,1168,Prepaid
6022484674697,1169,Prepaid
6022484677497,1170,Prepaid
6022279858297,1171,Prepaid
6022279860697,1172,Prepaid
6022279848497,1173,Prepaid
6022279855897,1174,Prepaid
6022279639297,1187,Prepaid
6022484637497,1192,Prepaid
6022279641697,1195,Prepaid
6022279644497,1196,Prepaid
6022373419097,1201,Prepaid
6022373421497,1202,Prepaid
6022484669297,1203,Prepaid
6022484671697,1204,Prepaid
6022279843897,1206,Prepaid
6022279836497,1207,Prepaid
6022279838897,1208,Prepaid
6022373325097,1220,Prepaid
6022484643897,1226,Prepaid
6022279688497,1229,Prepaid
6022279690897,1230,Prepaid
6022373401897,1234,Prepaid
6022484662697,1237,Prepaid
6022484665297,1238,Prepaid
6022279807897,1240,Prepaid
6022279800497,1241,Prepaid
6022373355297,1256,Prepaid
6022373357697,1257,Prepaid
6022373360097,1258,Prepaid
6022484655497,1260,Prepaid
6022279724897,1264,Prepaid
6022279700897,1265,Prepaid
6022373340697,1266,Prepaid
6022373348697,1270,Prepaid
6022484649697,1272,Prepaid
6022279713297,1274,Prepaid
6022279706097,1275,Prepaid
6022279708497,1276,Prepaid
6021612177297,1359,Prepaid
6021724954897,1360,Prepaid
6021724959297,1362,Prepaid
6021612169897,1363,Prepaid
6021725064897,1364,Prepaid
6021612185497,1365,Prepaid
6021725070097,1366,Prepaid
6021612166697,1367,Prepaid
6021725078097,1368,Prepaid
6021612182497,1369,Prepaid
6021725073897,1370,Prepaid
6021659072497,1371,Prepaid
6021725440297,1372,Prepaid
6021659075097,1373,Prepaid
6021725444097,1374,Prepaid
6021659077497,1375,Prepaid
6021725447697,1376,Prepaid
6021659080097,1377,Prepaid
6021725450497,1378,Prepaid
6021659082697,1379,Prepaid
6021725453097,1380,Prepaid
6021659085097,1381,Prepaid
6021725456897,1382,Prepaid
6021725420097,1390,Prepaid
6021725422497,1392,Prepaid
6021660234297,1393,Prepaid
6021725425497,1394,Prepaid
6021725428297,1396,Prepaid
6021725433497,1400,Prepaid
6021725463897,1402,Prepaid
6021725466897,1404,Prepaid
6021725469497,1406,Prepaid
6021725472297,1408,Prepaid
6021725474697,1410,Prepaid
6021725477697,1412,Prepaid
6021728431697,1418,Prepaid
6021728437097,1422,Prepaid
6021728439697,1424,Prepaid
6021728442497,1426,Prepaid
6021728445097,1428,Prepaid
6021728387097,1430,Prepaid
6021728395897,1434,Prepaid
6021728398297,1436,Prepaid
6021728400697,1438,Prepaid
6021728403097,1440,Prepaid
6020827475497,1510,Prepaid
6020858763897,1511,Prepaid
6020858745297,1512,Prepaid
6020839896297,1513,Prepaid
6020858870697,1514,Prepaid
6021005200497,1520,Prepaid
6021005209697,1521,Prepaid
6021005204297,1522,Prepaid
6021006115897,1525,Prepaid
6021006118297,1526,Prepaid
6021006120697,1527,Prepaid
6021254026297,1736,Prepaid
6021254028697,1737,Prepaid
6021254031097,1738,Prepaid
6021254033497,1739,Prepaid
6021254036297,1740,Prepaid
6021254038897,1741,Prepaid
6021558622297,1746,Prepaid
6021558618297,1747,Prepaid
6021247702897,1748,Prepaid
6021247706097,1749,Prepaid
6021247709097,1750,Prepaid
6021247397297,1751,Prepaid
6021247393497,1752,Prepaid
6021247387897,1753,Prepaid
6021564639697,1757,Prepaid
6021564642297,1758,Prepaid
6021460612297,1768,Prepaid
6021460614697,1769,Prepaid
6021460619697,1771,Prepaid
6021460607097,1772,Prepaid
6021460609497,1773,Prepaid
6021460735697,1775,Prepaid
6021460738097,1776,Prepaid
6021460740697,1777,Prepaid
6021460743297,1778,Prepaid
6021460745697,1779,Prepaid
6021564633897,1780,Prepaid
6021564636297,1781,Prepaid
6021558888097,1788,Prepaid
6021558898897,1790,Prepaid
6021558895297,1791,Prepaid
6021559190297,1792,Prepaid
6021559187297,1793,Prepaid
6021559184097,1794,Prepaid
6021559176297,1795,Prepaid
6035389493206,2,Postpaid
6035389103806,3,Postpaid
6035389103006,4,Postpaid
6033625599806,7,Postpaid
6033625461606,8,Postpaid
6033625370006,9,Postpaid
6033625368806,10,Postpaid
6033624868006,11,Postpaid
6033525476206,12,Postpaid
6033624724206,13,Postpaid
6033525541806,14,Postpaid
6033525333806,15,Postpaid
6032683514676,154,Postpaid
6032683320676,155,Postpaid
6032683494476,156,Postpaid
6032683444476,157,Postpaid
6032683421276,158,Postpaid
6032683364276,159,Postpaid
6032683180676,160,Postpaid
6032683204676,161,Postpaid
6032683263676,162,Postpaid
6032683284676,163,Postpaid
6032683336876,164,Postpaid
6032683291476,165,Postpaid
6032683249676,166,Postpaid
6032683296876,167,Postpaid
6032683303876,168,Postpaid
6032683500676,169,Postpaid
6032683485676,170,Postpaid
6032683377876,171,Postpaid
6032683483676,172,Postpaid
6032683487076,173,Postpaid
6032683454676,175,Postpaid
6032683415276,176,Postpaid
6032683400876,177,Postpaid
6032683276076,178,Postpaid
6032683348076,179,Postpaid
6032683508076,180,Postpaid
6032683467476,181,Postpaid
6032683419076,182,Postpaid
6032683368476,183,Postpaid
6032683261476,184,Postpaid
6032683285676,185,Postpaid
6032683419276,186,Postpaid
6032683458276,187,Postpaid
6032683409076,188,Postpaid
6032683426676,189,Postpaid
6032683240476,190,Postpaid
6032683492276,191,Postpaid
6032683460276,192,Postpaid
6032683448876,193,Postpaid
6032683440676,194,Postpaid
6032683363076,195,Postpaid
6032683607076,196,Postpaid
6032683322876,197,Postpaid
6032683289276,198,Postpaid
6032683243076,199,Postpaid
6032683232076,200,Postpaid
6032683175876,201,Postpaid
6032683112076,202,Postpaid
6032683100676,203,Postpaid
6032683065276,204,Postpaid
6032683063876,205,Postpaid
6032683062276,206,Postpaid
6032683060076,207,Postpaid
6032683233476,208,Postpaid
6032683257076,209,Postpaid
6032683312676,210,Postpaid
6032683333676,211,Postpaid
6032683376276,212,Postpaid
6032683370076,213,Postpaid
6032683267476,214,Postpaid
6032683300476,215,Postpaid
6032683333476,216,Postpaid
6032683345676,217,Postpaid
6032683511476,218,Postpaid
6032683416476,219,Postpaid
6032683331276,220,Postpaid
6032683475076,221,Postpaid
6032683468276,222,Postpaid
6032683393076,223,Postpaid
6032683379076,224,Postpaid
6032683435476,225,Postpaid
6032683127876,226,Postpaid
6032683116676,227,Postpaid
6032683110076,228,Postpaid
6032683070676,229,Postpaid
6032683051876,230,Postpaid
6032683024876,231,Postpaid
6032683362276,232,Postpaid
6032683355276,233,Postpaid
6032683303076,234,Postpaid
6032683237676,235,Postpaid
6032683205276,236,Postpaid
6032683184076,237,Postpaid
6032683411076,238,Postpaid
6032683305876,239,Postpaid
6032683223276,240,Postpaid
6032683202876,241,Postpaid
6032683226476,242,Postpaid
6032683154876,243,Postpaid
6032683330476,244,Postpaid
6032683524476,245,Postpaid
6032683296076,246,Postpaid
6032683250876,247,Postpaid
6032683159276,248,Postpaid
6032683152476,249,Postpaid
6032683119676,250,Postpaid
6032683085476,251,Postpaid
6032683063076,252,Postpaid
6032683056076,253,Postpaid
6032683038076,254,Postpaid
6032683018076,255,Postpaid
6032683125476,256,Postpaid
6032683070276,257,Postpaid
6032683041076,258,Postpaid
6032683035876,259,Postpaid
6032683027076,261,Postpaid
6032683166276,262,Postpaid
6032683311476,263,Postpaid
6032683453876,264,Postpaid
6032683376076,265,Postpaid
6032683390676,266,Postpaid
6032683434276,267,Postpaid
6032683122876,268,Postpaid
6032683092676,269,Postpaid
6032683089876,270,Postpaid
6032683078876,271,Postpaid
6032683044676,272,Postpaid
6032683011676,273,Postpaid
6032683090676,274,Postpaid
6032683055676,275,Postpaid
6032683067876,276,Postpaid
6032683047276,277,Postpaid
6032683031476,278,Postpaid
6032683018876,279,Postpaid
6032683273076,280,Postpaid
6032683270676,281,Postpaid
6032683339076,282,Postpaid
6032683437076,283,Postpaid
6032683405676,284,Postpaid
6032683395876,285,Postpaid
6032683348876,286,Postpaid
6032683309676,287,Postpaid
6032683254876,288,Postpaid
6032683186476,289,Postpaid
6032683217276,290,Postpaid
6032683190876,291,Postpaid
6032683520876,292,Postpaid
6032683505676,293,Postpaid
6032683474876,294,Postpaid
6032683465076,295,Postpaid
6032683386476,296,Postpaid
6032683400076,297,Postpaid
6032683496676,298,Postpaid
6032683393876,299,Postpaid
6032683430076,300,Postpaid
6032683451076,301,Postpaid
6032683433676,302,Postpaid
6032683428876,303,Postpaid
6032683163676,304,Postpaid
6032683033476,305,Postpaid
6032683130076,305,Postpaid
6032683111876,306,Postpaid
6032683107476,307,Postpaid
6032683087476,308,Postpaid
6032683022676,309,Postpaid
6032683134476,310,Postpaid
6032683103876,311,Postpaid
6032683098676,312,Postpaid
6032683096476,313,Postpaid
6032683051276,314,Postpaid
6032683047476,315,Postpaid
6032683206676,316,Postpaid
6032683356076,317,Postpaid
6032683503476,318,Postpaid
6032683481076,319,Postpaid
6032683479076,320,Postpaid
6032683445476,321,Postpaid
6032683231476,322,Postpaid
6032683293476,323,Postpaid
6032683323676,324,Postpaid
6032683517676,325,Postpaid
6032683495476,326,Postpaid
6032683377076,327,Postpaid
6032683257876,328,Postpaid
6032683216876,330,Postpaid
6032683199276,333,Postpaid
6032683334676,334,Postpaid
6032683103076,335,Postpaid
6029750810146,354,Postpaid
6029750820946,355,Postpaid
6029750814746,356,Postpaid
6029750812346,357,Postpaid
6029750980546,358,Postpaid
6029750986146,359,Postpaid
6029750982746,360,Postpaid
6029750981746,361,Postpaid
6029412948146,366,Postpaid
6029412945946,367,Postpaid
6029412943546,368,Postpaid
6029412918946,369,Postpaid
6029412915346,370,Postpaid
6029412914546,371,Postpaid
6029346609946,372,Postpaid
6029346601746,373,Postpaid
6029346597546,374,Postpaid
6029346595346,375,Postpaid
6029346592546,377,Postpaid
6029413038746,378,Postpaid
6029413034146,379,Postpaid
6029413031346,380,Postpaid
6029413031146,381,Postpaid
6029413028546,382,Postpaid
6029413028346,383,Postpaid
6029413024146,384,Postpaid
6029413023746,385,Postpaid
6029346605946,386,Postpaid
6029346599546,387,Postpaid
6029346597346,388,Postpaid
6029346591546,389,Postpaid
6029346589546,390,Postpaid
6029346588546,391,Postpaid
6029346585146,392,Postpaid
6029346584346,393,Postpaid
6028265699546,395,Postpaid
6028265696746,396,Postpaid
6028265692946,397,Postpaid
6028265681946,399,Postpaid
6028265670946,400,Postpaid
6028265668546,401,Postpaid
6028265664746,402,Postpaid
6028265776746,403,Postpaid
6028265691746,404,Postpaid
6028265687146,405,Postpaid
6028265682346,406,Postpaid
6028265678146,407,Postpaid
6028265673746,408,Postpaid
6028265664946,409,Postpaid
6028265664546,410,Postpaid
6028265660746,411,Postpaid
6028265620746,413,Postpaid
6028265615546,414,Postpaid
6028265614746,415,Postpaid
6028265612546,416,Postpaid
6028265606946,417,Postpaid
6028265606346,418,Postpaid
6028265604546,419,Postpaid
6028265601946,420,Postpaid
6028265597546,421,Postpaid
6028265592946,422,Postpaid
6028265590946,423,Postpaid
6028265588746,425,Postpaid
6028265588346,426,Postpaid
6028265584746,427,Postpaid
6028265580146,428,Postpaid
6028265574346,429,Postpaid
6028265573346,430,Postpaid
6028265572546,431,Postpaid
6028265567946,432,Postpaid
6028265561946,433,Postpaid
6028265558546,434,Postpaid
6028265556746,435,Postpaid
6028265556146,436,Postpaid
6028265555746,437,Postpaid
6028265554746,438,Postpaid
6028265546746,439,Postpaid
6028265545546,440,Postpaid
6028265545346,441,Postpaid
6028265542146,442,Postpaid
6028265504546,443,Postpaid
6028265501146,444,Postpaid
6028265495346,445,Postpaid
6028265494946,446,Postpaid
6028265492146,447,Postpaid
6028265487746,448,Postpaid
6028265482346,450,Postpaid
6028265479346,451,Postpaid
6028265470746,452,Postpaid
6028265468546,453,Postpaid
6028265467946,454,Postpaid
6028265457546,455,Postpaid
6028265457146,456,Postpaid
6028265456546,457,Postpaid
6028265453546,458,Postpaid
6028265451746,459,Postpaid
6028265451546,460,Postpaid
6028265451146,461,Postpaid
6028265450746,462,Postpaid
6028265449146,463,Postpaid
6028265448346,465,Postpaid
6028265447946,466,Postpaid
6028265443746,467,Postpaid
6028265436546,468,Postpaid
6028265434146,469,Postpaid
6028265431546,470,Postpaid
6028265430946,471,Postpaid
6028265426946,472,Postpaid
6028265425546,473,Postpaid
6028265422546,474,Postpaid
6028265322546,475,Postpaid
6028265319946,476,Postpaid
6028265314946,477,Postpaid
6028265311946,478,Postpaid
6028265311146,479,Postpaid
6028265309946,480,Postpaid
6028265307146,481,Postpaid
6028265298546,482,Postpaid
6028265297346,483,Postpaid
6028265296946,484,Postpaid
6028265296546,485,Postpaid
6028265294746,486,Postpaid
6028265288146,487,Postpaid
6028265284346,488,Postpaid
6028265283946,489,Postpaid
6028265281946,490,Postpaid
6028265281546,491,Postpaid
6028265275746,492,Postpaid
6028265269946,494,Postpaid
6028265263546,495,Postpaid
6028265263346,496,Postpaid
6028265261546,497,Postpaid
6028265258746,498,Postpaid
6028265257746,499,Postpaid
6028265257546,500,Postpaid
6028265255746,501,Postpaid
6028265247746,502,Postpaid
6028265246746,503,Postpaid
6028265245746,504,Postpaid
6028265245346,505,Postpaid
6028265240346,506,Postpaid
6028265238146,507,Postpaid
6028265234946,508,Postpaid
6028265233746,509,Postpaid
6028265228346,511,Postpaid
6028265221346,512,Postpaid
6028265219746,513,Postpaid
6028265219346,514,Postpaid
6028265215746,515,Postpaid
6028265215546,516,Postpaid
6028265213346,517,Postpaid
6028265208946,518,Postpaid
6028265205346,519,Postpaid
6028265203546,520,Postpaid
6028265203146,521,Postpaid
6028265199946,522,Postpaid
6028265196346,523,Postpaid
6028265193946,524,Postpaid
6028265189146,526,Postpaid
6028265183746,528,Postpaid
6028265182546,529,Postpaid
6028265180346,530,Postpaid
6028265177946,531,Postpaid
6028265173346,532,Postpaid
6028265171546,533,Postpaid
6028265169946,534,Postpaid
6028265166546,535,Postpaid
6028265163346,537,Postpaid
6028265160346,539,Postpaid
6028265158146,540,Postpaid
6028265155746,541,Postpaid
6028265151946,542,Postpaid
6028265149546,543,Postpaid
6028265146546,544,Postpaid
6028265144146,546,Postpaid
6028265140946,547,Postpaid
6028265136946,548,Postpaid
6028265134146,550,Postpaid
6028265131346,551,Postpaid
6028265126346,552,Postpaid
6028265122346,554,Postpaid
6037087038953,669,Postpaid
6034497664753,670,Postpaid
6034278056953,671,Postpaid
6034312479553,672,Postpaid
6034497663753,673,Postpaid
6027641333823,674,Postpaid
6027641334423,675,Postpaid
6027641041623,676,Postpaid
6027641039823,677,Postpaid
6027641363823,678,Postpaid
6027641363023,679,Postpaid
6038774670209,685,Postpaid
6038774667409,687,Postpaid
6032683404276,688,Postpaid
6025046776149,776,Postpaid
6032683243876,778,Postpaid
6032133518547,778,Postpaid
6032133518347,779,Postpaid
6027735975747,788,Postpaid
6027739714347,789,Postpaid
6032132588147,790,Postpaid
6032132587947,791,Postpaid
6030246253547,792,Postpaid
6030845729747,793,Postpaid
6030246253347,794,Postpaid
6031925890347,795,Postpaid
6031925890947,796,Postpaid
6027735978747,797,Postpaid
6030845729147,799,Postpaid
6027735974947,801,Postpaid
6029779921547,802,Postpaid
6028279935147,803,Postpaid
6028279931347,804,Postpaid
6028279930547,805,Postpaid
6028279924947,806,Postpaid
6028279924147,807,Postpaid
6028279923347,808,Postpaid
6028279922547,809,Postpaid
6025799382747,810,Postpaid
6025799372547,811,Postpaid
6025799373347,812,Postpaid
6025799373147,813,Postpaid
6025799382947,814,Postpaid
6025799374347,815,Postpaid
6022228827347,816,Postpaid
6022228830347,817,Postpaid
6022228823147,818,Postpaid
6022228822947,819,Postpaid
6030534348156,828,Postpaid
6030534347956,829,Postpaid
6030532778356,830,Postpaid
6030532773556,831,Postpaid
6030532772756,832,Postpaid
6030532772556,833,Postpaid
6030532613356,834,Postpaid
6030532613156,835,Postpaid
6030532497956,836,Postpaid
6030532271356,837,Postpaid
6031332680356,842,Postpaid
6031331290556,843,Postpaid
6030985792156,844,Postpaid
6030985784756,845,Postpaid
6030985783356,846,Postpaid
6030985782556,847,Postpaid
6030985780756,848,Postpaid
6030985780556,849,Postpaid
6030985779756,850,Postpaid
6030985777156,851,Postpaid
6021856733697,885,Postpaid
6021856736897,886,Postpaid
6021856730097,887,Postpaid
6021856726697,888,Postpaid
6021856719297,889,Postpaid
6032683278076,890,Postpaid
6021856722897,890,Postpaid
6022535424697,891,Postpaid
6021856715297,892,Postpaid
6022278283097,894,Postpaid
6022278285497,895,Postpaid
6022278288097,896,Postpaid
6022278290697,897,Postpaid
6022278293097,898,Postpaid
6022278295497,899,Postpaid
6022536119897,900,Postpaid
6022278297897,901,Postpaid
6022278300297,902,Postpaid
6022278420497,921,Postpaid
6022278422897,922,Postpaid
6022278425697,923,Postpaid
6022278431497,925,Postpaid
6022278434097,926,Postpaid
6022536140697,927,Postpaid
6022278436897,928,Postpaid
6022278399497,940,Postpaid
6022278406897,943,Postpaid
6022278410097,944,Postpaid
6022278415297,947,Postpaid
6022278375097,948,Postpaid
6022278380297,950,Postpaid
6022278382697,951,Postpaid
6022278385297,952,Postpaid
6022278387697,953,Postpaid
6022536135097,954,Postpaid
6022278390097,955,Postpaid
6022278392697,956,Postpaid
6022278137297,976,Postpaid
6022278139897,977,Postpaid
6022536103497,981,Postpaid
6021856076897,993,Postpaid
6021856072697,994,Postpaid
6021856080297,995,Postpaid
6021856069497,996,Postpaid
6021856089097,997,Postpaid
6021856066497,998,Postpaid
6022535457297,999,Postpaid
6022586083897,1005,Postpaid
6022581096697,1006,Postpaid
6022278466697,1008,Postpaid
6022278469097,1009,Postpaid
6022278471497,1010,Postpaid
6022278473897,1011,Postpaid
6022278476297,1012,Postpaid
6022278479097,1013,Postpaid
6022536151697,1014,Postpaid
6022278481697,1015,Postpaid
6022278484097,1016,Postpaid
6022581698097,1017,Postpaid
6022581701297,1018,Postpaid
6022581703897,1019,Postpaid
6022581706297,1020,Postpaid
6022278309297,1035,Postpaid
6022278320097,1039,Postpaid
6022581638097,1046,Postpaid
6022278214097,1048,Postpaid
6022278217297,1049,Postpaid
6022278227497,1052,Postpaid
6022536112297,1053,Postpaid
6022581601497,1056,Postpaid
6022581603897,1057,Postpaid
6022581606297,1058,Postpaid
6022278059697,1074,Postpaid
6022278064897,1076,Postpaid
6022278067697,1077,Postpaid
6022536089697,1079,Postpaid
6022581581297,1084,Postpaid
6022278443297,1086,Postpaid
6022278454297,1090,Postpaid
6032683221876,1091,Postpaid
6022278456897,1091,Postpaid
6022536148697,1092,Postpaid
6022278459697,1093,Postpaid
6022581692297,1097,Postpaid
6022581694697,1098,Postpaid
6022278086097,1125,Postpaid
6022278088697,1126,Postpaid
6022278091497,1127,Postpaid
6022278094497,1128,Postpaid
6022278098097,1129,Postpaid
6022278100697,1130,Postpaid
6032683161676,1163,Postpaid
6021612468497,1288,Postpaid
6021612454297,1289,Postpaid
6021612441097,1290,Postpaid
6021612437097,1291,Postpaid
6021612460097,1292,Postpaid
6021612473497,1293,Postpaid
6021612448897,1294,Postpaid
6021659209897,1295,Postpaid
6021659216497,1296,Postpaid
6021659218897,1297,Postpaid
6021659221497,1298,Postpaid
6021659224097,1299,Postpaid
6021659226497,1300,Postpaid
6021659228897,1301,Postpaid
6021659231497,1302,Postpaid
6021659187897,1312,Postpaid
6021659190697,1313,Postpaid
6021659193897,1314,Postpaid
6021659199097,1316,Postpaid
6021659205297,1318,Postpaid
6021659235897,1319,Postpaid
6021659238897,1320,Postpaid
6021659241497,1321,Postpaid
6021659246897,1323,Postpaid
6021659252097,1325,Postpaid
6021659254697,1326,Postpaid
6020840712097,1453,Postpaid
6020830475497,1454,Postpaid
6020764623497,1458,Postpaid
6020489776497,1459,Postpaid
6020489780297,1460,Postpaid
6021002677297,1461,Postpaid
6021002674097,1462,Postpaid
6021002668097,1463,Postpaid
6020828656497,1464,Postpaid
6020828651697,1465,Postpaid
6032683082276,1466,Postpaid
6020828632297,1466,Postpaid
6020840714497,1467,Postpaid
6020840717097,1468,Postpaid
6021003380897,1469,Postpaid
6021003383297,1470,Postpaid
6021006136697,1471,Postpaid
6020854234697,1472,Postpaid
6020854333497,1473,Postpaid
6020854329697,1474,Postpaid
6020830479697,1475,Postpaid
6020830483497,1476,Postpaid
6020829927097,1481,Postpaid
6020829913297,1482,Postpaid
6020839912697,1483,Postpaid
6020839915297,1484,Postpaid
6020542312897,1488,Postpaid
6020489630697,1490,Postpaid
6020489626697,1491,Postpaid
6021006193897,1492,Postpaid
6021006191497,1494,Postpaid
6020829908097,1495,Postpaid
6020829916497,1496,Postpaid
6020829920097,1497,Postpaid
6020829923697,1498,Postpaid
6021005437897,1499,Postpaid
6021005434097,1500,Postpaid
6021005430097,1501,Postpaid
6020839902897,1502,Postpaid
6020839905297,1503,Postpaid
6020839907697,1504,Postpaid
6020839910297,1505,Postpaid
6021255287497,1533,Postpaid
6021255284897,1534,Postpaid
6021255282097,1535,Postpaid
6021255279697,1536,Postpaid
6021255292497,1537,Postpaid
6021255289897,1538,Postpaid
6021554451097,1545,Postpaid
6021554447497,1546,Postpaid
6021253617297,1551,Postpaid
6021253625097,1552,Postpaid
6021253621297,1553,Postpaid
6021253302097,1554,Postpaid
6021253298697,1555,Postpaid
6021253294297,1556,Postpaid
6021563402497,1557,Postpaid
6021563405097,1558,Postpaid
6021563408497,1559,Postpaid
6021563389697,1560,Postpaid
6021563393297,1561,Postpaid
6021563398097,1562,Postpaid
6021460694697,1590,Postpaid
6021563416497,1593,Postpaid
6021563413697,1594,Postpaid
6021563427697,1595,Postpaid
6021563421497,1597,Postpaid
6021563419097,1598,Postpaid
6021460684297,1599,Postpaid
6021460687897,1600,Postpaid
6021460676297,1602,Postpaid
6021460678897,1603,Postpaid
6021563437097,1605,Postpaid
6021563447697,1606,Postpaid
6021563445097,1608,Postpaid
6021563442497,1609,Postpaid
6021563439897,1610,Postpaid
6021563454697,1625,Postpaid
6021563464897,1629,Postpaid
6021563471297,1630,Postpaid
6021563461697,1632,Postpaid
6021563468297,1633,Postpaid
6021565402897,1634,Postpaid
6021255270097,1641,Postpaid
6021255267697,1642,Postpaid
6021255265297,1643,Postpaid
6021255275097,1644,Postpaid
6021255272697,1645,Postpaid
6021255262697,1646,Postpaid
6021563161497,1653,Postpaid
6021563165497,1654,Postpaid
6021563168897,1655,Postpaid
6021563149097,1656,Postpaid
6021563153297,1657,Postpaid
6021563156897,1658,Postpaid
6021252769897,1659,Postpaid
6021252773897,1660,Postpaid
6021252777097,1661,Postpaid
6021252491097,1662,Postpaid
6021252484297,1663,Postpaid
6021252487497,1664,Postpaid
6021564339697,1665,Postpaid
6021564343097,1666,Postpaid
6032683210276,1667,Postpaid
6021564346097,1667,Postpaid
6021564334497,1668,Postpaid
6021564336897,1669,Postpaid
6021460600697,1688,Postpaid
6021460603097,1689,Postpaid
6021460592897,1691,Postpaid
6021460595697,1692,Postpaid
6021564393497,1694,Postpaid
6021564398697,1695,Postpaid
6032683353076,1696,Postpaid
6021564401497,1696,Postpaid
6021564385297,1697,Postpaid
6021564387697,1698,Postpaid
6021564390297,1699,Postpaid
6021460719297,1700,Postpaid
6021460721897,1701,Postpaid
6021460711697,1703,Postpaid
6021460714297,1704,Postpaid
6021563699097,1719,Postpaid
6021563696297,1720,Postpaid
6021563709097,1722,Postpaid
6021563675297,1725,Postpaid
6021563681097,1729,Postpaid
6021823399297,1800,Postpaid
6021823403497,1801,Postpaid
6021823406697,1802,Postpaid
6021823409897,1803,Postpaid
6021823413297,1804,Postpaid
6021823395897,1805,Postpaid
6022222396897,1806,Postpaid
6021823392897,1807,Postpaid
6021823389897,1808,Postpaid
6021829957497,1809,Postpaid
6021829959897,1810,Postpaid
6022126866497,1811,Postpaid
6022126863697,1812,Postpaid
6021829954897,1813,Postpaid
6021829962497,1814,Postpaid
6032683471876,1815,Postpaid
6022225329497,1815,Postpaid
6021829965097,1816,Postpaid
6021829967497,1817,Postpaid
6022223744697,1835,Postpaid
6022223749697,1837,Postpaid
6022223752297,1838,Postpaid
6022223754697,1839,Postpaid
6022223741897,1841,Postpaid
6022223760897,1842,Postpaid
6021829970897,1851,Postpaid
6021829973297,1852,Postpaid
6021829975697,1855,Postpaid
6021829978097,1856,Postpaid
6022225315497,1857,Postpaid
6021829980497,1858,Postpaid
6032683169076,1859,Postpaid
6021829983297,1859,Postpaid
6021829915897,1860,Postpaid
6021829918297,1861,Postpaid
6022126843497,1863,Postpaid
6021829920697,1864,Postpaid
6021829927697,1865,Postpaid
6022225327097,1866,Postpaid
6021829931497,1867,Postpaid
6021829934297,1868,Postpaid
6021829898497,1878,Postpaid
6032683266276,64,Others
6032683208276,114,Others
6032683150276,331,Others
6032683040476,332,Others
6032683221076,608,Others
6038774685009,680,Others
6038774684009,681,Others
6038774683409,682,Others
6038774682809,683,Others
6038774672609,684,Others
6032683080876,685,Others
6038774668809,686,Others
6032683326276,687,Others
6037620263409,689,Others
6037620258409,690,Others
6037620256209,691,Others
6030366755609,698,Others
6030366753009,699,Others
6029893023809,700,Others
6029893017609,701,Others
6030235741009,702,Others
6030235735209,703,Others
6030235734809,704,Others
6030235732409,705,Others
6029893018409,706,Others
6029893017409,707,Others
6041425851174,708,Others
6041518412774,709,Others
6041518414174,710,Others
6041425890374,711,Others
6041425852974,712,Others
6041425382374,713,Others
6040906415974,714,Others
6034368745574,715,Others
6034368743974,716,Others
6034368747174,717,Others
6034368744374,718,Others
6034362464974,719,Others
6032231361774,720,Others
6032231272974,721,Others
6032231277774,722,Others
6032231271774,723,Others
6032231271574,724,Others
6022912074574,725,Others
6022912072374,726,Others
6025781048374,727,Others
6025781045974,728,Others
6024046815174,729,Others
6022454061574,730,Others
6022454074174,731,Others
6022454065174,732,Others
6034438006549,733,Others
6034438000349,734,Others
6034438000149,735,Others
6035232098349,736,Others
6035232097349,737,Others
6034438000549,738,Others
6034425790349,739,Others
6033883941749,740,Others
6033672011349,741,Others
6033672013149,742,Others
6025350012949,743,Others
6025350018549,744,Others
6025350010549,745,Others
6025350017949,746,Others
6025350013149,747,Others
6025046794349,748,Others
6025046781549,749,Others
6025046780149,750,Others
6025046779749,751,Others
6025044756949,752,Others
6025046893349,753,Others
6025046894149,754,Others
6025046894349,755,Others
6025046894749,756,Others
6025046905549,757,Others
6025046805349,758,Others
6025046755349,759,Others
6025046814549,760,Others
6025044755749,761,Others
6025046799549,762,Others
6025046760349,763,Others
6025044898149,764,Others
6025046814349,765,Others
6025046803349,766,Others
6025046810149,767,Others
6025046775949,768,Others
6025044568549,769,Others
6025046755149,770,Others
6025046803149,771,Others
6025046777349,772,Others
6025046802949,773,Others
6025046753349,774,Others
6025044568949,775,Others
6032683119476,776,Others
6025046781749,777,Others
6020104788147,820,Others
6020104785947,821,Others
6020104784347,822,Others
6020104783947,823,Others
6033611525556,824,Others
6032027496556,825,Others
6033611525356,826,Others
6032027496756,827,Others
6031323568356,838,Others
6031323853556,839,Others
6031323579356,840,Others
6031323568156,841,Others
6031855011556,852,Others
6031855010556,853,Others
6031855008956,854,Others
6031855006956,855,Others
6031554871956,856,Others
6031554868556,857,Others
6031554867756,858,Others
6031554865756,859,Others
6031554859756,860,Others
6031554857556,861,Others
6031554857156,862,Others
6031554856156,863,Others
6031323852956,864,Others
6031323582756,865,Others
6031323581756,866,Others
6031323581356,867,Others
6031323579156,868,Others
6031323569956,869,Others
6030667524556,870,Others
6030667523156,871,Others
6030667522556,873,Others
