<?xml version="1.0" encoding="iso-8859-1"?>
<!-- Generator: Adobe Illustrator 18.0.0, SVG Export Plug-In . SVG Version: 6.00 Build 0)  -->
<!DOCTYPE svg PUBLIC "-//W3C//DTD SVG 1.1//EN" "http://www.w3.org/Graphics/SVG/1.1/DTD/svg11.dtd">
<svg version="1.1" id="Layer_1" xmlns="http://www.w3.org/2000/svg" xmlns:xlink="http://www.w3.org/1999/xlink" x="0px" y="0px"
	 viewBox="0 0 150 150" style="enable-background:new 0 0 150 150;" xml:space="preserve">
<g>
	<g>
		<g>
			<radialGradient id="SVGID_1_" cx="73.3631" cy="143.3734" r="133.1317" gradientUnits="userSpaceOnUse">
				<stop  offset="0.0121" style="stop-color:#4D74D1"/>
				<stop  offset="1" style="stop-color:#365898"/>
			</radialGradient>
			<path style="fill:url(#SVGID_1_);" d="M122.657,149.841H27.378c-15.042,0-27.281-12.238-27.281-27.281V27.281
				C0.097,12.238,12.335,0,27.378,0h95.279c15.043,0,27.281,12.238,27.281,27.281v95.279
				C149.938,137.603,137.7,149.841,122.657,149.841z"/>
			<path style="fill:#6E8FCA;" d="M125.001,0H25.034C11.208,0,0,11.208,0,25.034v23.98c20.262,6.492,46.434,10.408,75.017,10.408
				c28.583,0,54.755-3.916,75.018-10.408v-23.98C150.035,11.208,138.827,0,125.001,0z"/>
		</g>
		<radialGradient id="SVGID_2_" cx="75.0176" cy="74.9203" r="70.4484" gradientUnits="userSpaceOnUse">
			<stop  offset="0.0121" style="stop-color:#4D74D1"/>
			<stop  offset="1" style="stop-color:#4D5861"/>
		</radialGradient>
		<path style="opacity:0.75;fill:url(#SVGID_2_);" d="M117.865,145.369H32.171c-15.22,0-27.602-12.382-27.602-27.602V32.074
			c0-15.22,12.382-27.602,27.602-27.602h85.694c15.22,0,27.601,12.382,27.601,27.602v85.693
			C145.466,132.987,133.084,145.369,117.865,145.369z M32.171,9.607c-12.388,0-22.466,10.079-22.466,22.466v85.693
			c0,12.388,10.078,22.466,22.466,22.466h85.694c12.388,0,22.466-10.078,22.466-22.466V32.074c0-12.388-10.078-22.466-22.466-22.466
			H32.171z"/>
	</g>
	<path style="fill:#FFFFFF;" d="M108.123,133.061H84.07V74.918H72.046V54.876H84.07V42.849c0-16.348,6.787-26.07,26.064-26.07
		h16.054v20.04h-10.03c-7.507,0-8.006,2.802-8.006,8.027l-0.031,10.03h18.182l-2.128,20.042h-16.054V133.061z"/>
</g>
</svg>
