<?xml version="1.0" standalone="no"?>
<!DOCTYPE svg PUBLIC "-//W3C//DTD SVG 1.1//EN" "http://www.w3.org/Graphics/SVG/1.1/DTD/svg11.dtd">
<svg xmlns="http://www.w3.org/2000/svg">
<metadata>Copyright (C) 2016 by original authors @ fontello.com</metadata>
<defs>
<font id="fontello" horiz-adv-x="1000" >
<font-face font-family="fontello" font-weight="400" font-stretch="normal" units-per-em="1000" ascent="850" descent="-150" />
<missing-glyph horiz-adv-x="1000" />
<glyph glyph-name="circle" unicode="&#xe800;" d="m349 153l-126-219c-134 90-223 243-223 417 0 265 207 482 469 498v-251c-123-16-219-120-219-247 0-81 39-153 99-198z m349 348l218 126c-84 127-224 212-385 222v-251c68-9 128-45 167-97z m249 72l-217-125c13-30 20-63 20-97 0-138-112-250-250-250-34 0-67 7-97 19l-125-217c67-33 142-52 222-52 276 0 500 224 500 500 0 80-19 155-53 222z" horiz-adv-x="1000" />
<glyph glyph-name="gear" unicode="&#xe801;" d="m450 291c21 13 39 28 55 46l57-33 52 90-57 33c7 22 11 46 12 70l65 11-18 103-65-12c-9 23-21 43-35 62l42 50-80 67-42-50c-21 11-43 19-67 24v66h-104v-66c-24-5-46-13-67-24l-42 50-80-67 43-50c-15-19-27-39-36-62l-65 12-18-103 65-11c1-24 5-48 12-70l-57-33 52-90 57 33c16-18 35-33 55-46l-23-62 98-35 23 62c11-2 23-3 35-3 12 0 24 1 36 3l22-62 98 35-23 62z m-133 81c-73 0-133 60-133 133 0 74 60 133 133 133s133-59 133-133c0-73-60-133-133-133z m581-159l-45-14c-9 14-19 28-31 40l25 40-63 39-26-40c-15 6-32 10-49 11l-7 47-74-11 7-46c-16-6-31-14-45-24l-35 31-50-55 35-32c-8-14-15-30-19-47l-47 2-3-74 47-2c3-17 9-34 16-49l-37-29 46-58 37 29c13-11 27-20 43-27l-10-47 73-15 10 46c8 0 17 1 25 2 9 1 17 3 25 5l22-42 66 35-22 42c13 11 24 24 34 38l44-18 28 69-44 18c3 16 4 33 2 51l45 14-23 71z m-189-199c-52-7-100 30-107 82-7 52 29 100 81 107 52 7 100-29 108-81 7-52-30-100-82-108z m289 457l2 59-37 1c-2 13-7 26-13 38l29 23-36 47-29-24c-11 9-22 16-34 22l7 36-57 12-8-37c-13 0-27-1-40-5l-17 33-52-28 17-33c-10-9-19-19-26-30l-35 14-22-55 35-14c-2-13-3-26-1-40l-36-12 19-55 35 11c7-12 16-22 25-31l-19-32 50-31 19 32c13-5 26-7 40-8l5-37 58 8-5 37c6 2 12 5 18 8 6 4 12 7 17 11l28-25 39 44-28 25c7 12 12 24 15 37l37-1z m-140-31c-36-20-82-6-102 30-19 37-6 82 31 102 36 20 82 6 102-30 19-37 6-83-31-102z" horiz-adv-x="1000" />
<glyph glyph-name="predict" unicode="&#xe802;" d="m934 64l-309 515v209h31c17 0 32 14 32 31s-15 31-32 31h-312c-17 0-31-14-31-31s14-31 31-31h31v-209l-309-515c-71-118-16-214 122-214h625c137 0 192 96 121 214z m-699 161l203 337v226h125v-226l202-337h-530z" horiz-adv-x="1000" />
<glyph glyph-name="report" unicode="&#xe803;" d="m918 821h-836c-45 0-82-37-82-82v-568c0-45 37-82 82-82h280v-109h-44c-28 0-50-23-50-50 0-28 22-51 50-51h364c28 0 50 23 50 51 0 27-22 50-50 50h-44v109h280c45 0 82 37 82 82v568c0 45-37 82-82 82z m-851-82c0 8 7 15 15 15h836c8 0 15-7 15-15v-520h-866v520z m732-599c-13 0-23 10-23 22 0 13 10 23 23 23 13 0 23-10 23-23 0-12-10-22-23-22z m72 22c0 16 13 29 28 29 16 0 29-13 29-29 0-15-13-28-29-28-15 0-28 13-28 28z m-421 374h-67c-11 0-20-9-20-20v-217c0-11 9-20 20-20h67c11 0 20 9 20 20v217c0 11-9 20-20 20z m-168-63h-67c-11 0-20-9-20-20v-154c0-11 9-20 20-20h67c11 0 20 9 20 20v154c0 11-9 20-20 20z m335 149h-67c-11 0-20-9-20-20v-138-165c0-11 9-20 20-20h67c11 0 20 9 20 20v165 138c0 11-9 20-20 20z m-53-158v124h40v-124h-40z m221 225h-67c-11 0-20-9-20-20v-126-244c0-11 9-20 20-20h67c11 0 20 9 20 20v244 126c0 11-9 20-20 20z m-54-146v112h40v-112h-40z" horiz-adv-x="1000" />
</font>
</defs>
</svg>