<?xml version="1.0" standalone="no"?>
<!DOCTYPE svg PUBLIC "-//W3C//DTD SVG 1.1//EN" "http://www.w3.org/Graphics/SVG/1.1/DTD/svg11.dtd" >
<!--
2016-4-14: Created with FontForge (http://fontforge.org)
-->
<svg xmlns="http://www.w3.org/2000/svg" xmlns:xlink="http://www.w3.org/1999/xlink" version="1.1">
<metadata>
Created by FontForge 20160405 at Thu Apr 14 17:09:38 2016
 By Allan,,,
Copyright (c) 2016, Allan,,,
</metadata>
<defs>
<font id="fontcustom" horiz-adv-x="512" >
  <font-face 
    font-family="fontcustom"
    font-weight="400"
    font-stretch="normal"
    units-per-em="512"
    panose-1="2 0 5 3 0 0 0 0 0 0"
    ascent="448"
    descent="-64"
    bbox="-16.3174 -72.9615 634.741 502.283"
    underline-thickness="25.6"
    underline-position="-51.2"
    unicode-range="U+0020-F10D"
  />
    <missing-glyph />
    <glyph glyph-name="space" unicode=" " horiz-adv-x="200" 
 />
    <glyph glyph-name="uniF105" unicode="&#xf105;" 
d="M120.911 256.74c25.3154 -6.47949 41.46 2.16992 41.46 2.16992s138.973 61.3818 159.979 72.6973c21.0127 11.3096 45.2432 0 45.2432 0s91.0381 -50.0723 102.315 -56.5518c11.3408 -6.47949 24.2305 -32.3223 10.7822 -58.7168
c-13.4473 -26.3691 -53.2959 -8.61133 -53.2959 -8.61133l-88.9004 49.5459c-58.7158 -18.3096 -267.695 -180.434 -267.695 -180.434l-68.9404 15.085c-10.7822 126.02 31.7949 183.131 31.7949 183.131s61.9404 -11.8428 87.2568 -18.3154zM604.027 271.832
c40.9648 -68.4209 29.1289 -183.131 29.1162 -183.131l-73.8145 -14.5332s-19.3936 27.9814 -41.4541 29.0664c-22.0596 1.08496 -31.4209 -12.3945 -31.4209 -12.3945s-11.1504 7.55859 -30.5508 8.6123c-19.3379 1.02148 -29.0664 -13.4482 -29.0664 -13.4482
s-10.7822 16.7041 -41.4551 7.5332c-30.7412 -9.13867 -30.7412 -39.3223 -30.7412 -39.3223c-18.2842 -0.558594 -33.376 -11.2773 -33.376 -11.2773c-37.7031 -25.3477 -8.61133 -83.5371 -8.61133 -83.5371s-19.3945 -15.0596 -33.4014 -24.2305
c-14.0059 -9.16992 -14.5332 -12.3945 -30.71 0c-16.1445 12.3945 -5.26758 22.124 -5.26758 22.124l40.2803 29.0664s9.7041 8.05273 2.69727 13.4473c-7 5.38867 -14.0059 -1.61133 -14.0059 -1.61133s-36.0664 -27.4609 -50.0732 -37.6855
c-14.0059 -10.2236 -25.874 -8.6748 -36.0977 2.66602s1.08496 22.6182 1.08496 22.6182s70.5586 51.1836 73.7832 54.4072c3.22363 3.22461 4.30859 4.83008 0 10.7822c-4.30957 5.88965 -12.9219 0.495117 -12.9219 0.495117s-65.7227 -51.126 -80.8076 -61.3496
c-15.0596 -10.2246 -21.54 -9.1709 -32.8486 3.78223c-11.3096 12.8896 -1.6123 24.167 -1.6123 24.167s74.335 52.8711 77.0322 55.5303s4.83594 4.83008 1.05371 8.6123c-3.74512 3.78223 -9.69727 0 -9.69727 0s-55.4678 -37.6787 -81.3096 -56.0254
c-25.874 -18.2842 -38.7959 0 -38.7959 0c-14.0059 22.0664 7.55859 36.0723 7.55859 36.0723c175.572 140.616 251.507 171.853 251.507 171.853s54.9463 -31.2617 64.1172 -37.1826c9.16406 -5.9209 21 -16.1455 45.2363 -16.1455s35.5713 9.14551 50.6377 25.9375
c15.0664 16.793 5.95312 50.0098 5.95312 50.0098c9.67188 -3.7832 37.126 0 37.126 0zM541.56 47.209c-3.78223 -31.2373 -7.55859 -51.6846 -23.6846 -56.5781c-16.1699 -4.83594 -23.1768 10.2178 -23.1768 10.2178
c-1.05371 -2.65918 0.558594 -22.0537 -18.8428 -27.9434c-19.4004 -5.95215 -30.1826 15.0605 -30.1826 15.0605c2.16992 -22.6191 -4.27734 -33.96 -17.7256 -39.3545c-13.5117 -5.39355 -38.7891 13.5117 -38.7891 13.5117
c1.05371 -5.39453 4.27734 -24.2363 -18.8418 -31.7949c-23.1768 -7.55859 -29.1299 18.8418 -29.1299 18.8418s0.558594 -6.44727 -9.66602 36.625c-10.2559 43.0664 13.4482 45.7959 13.4482 45.7959c17.2305 8.61816 28.5713 -10.7832 29.9355 -10.7832
c1.42773 0 5.64258 3.22461 5.64258 3.22461c-8.67578 19.4004 -9.72949 36.6309 14.501 46.8545c24.2305 10.2246 35.0127 -17.7256 35.0127 -17.7256l5.95312 0.495117c-0.558594 24.7891 20.4541 23.1777 20.4541 23.1777c23.6787 0 29.999 -15.6191 29.999 -15.6191
l3.4082 0.806641c5.3877 23.4238 29.0664 20.2061 39.8486 14.8125c10.7822 -5.39453 11.8359 -29.625 11.8359 -29.625z" />
    <glyph glyph-name="uniF10D" unicode="&#xf10d;" 
d="M0 448h512v-512h-512v512z" />
    <glyph glyph-name="uniF101" unicode="&#xf101;" 
d="M204.8 206.336c-20.3594 0 -36.8643 16.5049 -36.8643 36.8643s16.5049 36.8643 36.8643 36.8643s36.8643 -16.5049 36.8643 -36.8643s-16.5049 -36.8643 -36.8643 -36.8643zM176.128 259.584c0 -6.78613 5.50195 -12.2881 12.2881 -12.2881
s12.2881 5.50195 12.2881 12.2881s-5.50195 12.2881 -12.2881 12.2881s-12.2881 -5.50195 -12.2881 -12.2881zM278.528 243.2c0 -40.7188 -33.0098 -73.7285 -73.7285 -73.7285s-73.7275 33.0098 -73.7275 73.7285s33.0088 73.7275 73.7275 73.7275
s73.7285 -33.0088 73.7285 -73.7275zM143.36 243.2c0 -33.9326 27.5068 -61.4404 61.4395 -61.4404s61.4404 27.5078 61.4404 61.4404s-27.5078 61.4395 -61.4404 61.4395s-61.4395 -27.5068 -61.4395 -61.4395zM318.375 198.252
c-36.1572 -25.6328 -74.543 -41.0684 -113.613 -41.0684s-77.4561 15.4355 -113.613 41.0684c-12.5781 8.91699 -23.9893 18.4629 -34.0361 28.0156c-3.52441 3.34961 -6.62988 6.46582 -9.29199 9.27051c-1.61621 1.70215 -2.73633 2.93555 -3.33594 3.62305
l-3.52441 4.03906l3.52441 4.03906c0.599609 0.6875 1.71973 1.9209 3.33594 3.62305c2.66211 2.80371 5.76758 5.91992 9.29199 9.27051c10.0469 9.55273 21.458 19.0986 34.0361 28.0156c36.1572 25.6318 74.543 41.0674 113.613 41.0674
s77.4561 -15.4355 113.613 -41.0674c12.5781 -8.91699 23.9893 -18.4629 34.0361 -28.0156c3.52441 -3.35059 6.62988 -6.4668 9.29199 -9.27051c1.61621 -1.70215 2.73633 -2.93555 3.33594 -3.62305l3.52441 -4.03906l-3.52441 -4.03906
c-0.599609 -0.6875 -1.71973 -1.9209 -3.33594 -3.62305c-2.66211 -2.80469 -5.76758 -5.9209 -9.29199 -9.27051c-10.0469 -9.55273 -21.458 -19.0986 -34.0361 -28.0156zM98.2549 208.276c34.2607 -24.2881 70.3604 -38.8047 106.507 -38.8047
s72.2461 14.5166 106.507 38.8047c12.0674 8.55469 23.0332 17.7285 32.6758 26.8965c3.36816 3.20215 6.32617 5.37109 8.84766 8.02734c-2.52148 2.65527 -5.47949 4.8252 -8.84766 8.02734c-9.64258 9.16699 -20.6084 18.3408 -32.6758 26.8965
c-34.2607 24.2871 -70.3604 38.8037 -106.507 38.8037s-72.2461 -14.5166 -106.507 -38.8037c-12.0674 -8.55566 -23.0332 -17.7295 -32.6758 -26.8965c-3.36816 -3.20215 -5.71387 -5.37207 -8.23535 -8.02734c2.52148 -2.65625 4.86719 -4.8252 8.23535 -8.02734
c9.64258 -9.16797 20.6084 -18.3418 32.6758 -26.8965z" />
    <glyph glyph-name="uniF107" unicode="&#xf107;" 
d="M204.587 445.952c87.0479 0 151.941 -77.623 151.941 -164.737c0 -111.973 -151.941 -240.767 -151.941 -240.767s-151.937 128.794 -151.937 240.767c0 88.3018 64.8887 164.737 151.937 164.737zM204.587 217.854c38.4658 0 69.6523 31.2158 69.6523 69.6982
c0 38.4941 -31.1865 69.6973 -69.6523 69.6973c-38.457 0 -69.6445 -31.207 -69.6445 -69.6973c0 -38.4863 31.1875 -69.6982 69.6445 -69.6982z" />
    <glyph glyph-name="uniF109" unicode="&#xf109;" 
d="M132.027 413.376c1.14453 -6.58887 2.29688 -13.1748 3.45312 -19.7607c5.65527 -1.125 11.1553 -2.91113 16.3926 -5.3252c4.80762 4.64551 9.60938 9.29785 14.4062 13.957c6.33301 -3.54785 12.2256 -7.82715 17.5557 -12.7559
c-2.94727 -6.00098 -5.88574 -12.0068 -8.82031 -18.0146c3.91309 -4.2334 7.31348 -8.91309 10.1299 -13.9424c6.62109 0.931641 13.2402 1.87305 19.8594 2.82031c3.04004 -6.59082 5.29102 -13.5186 6.70605 -20.6367
c-5.91211 -3.12305 -11.8203 -6.25488 -17.7266 -9.38965c0.677734 -5.72461 0.677734 -11.5107 0 -17.2344c5.90625 -3.1377 11.8145 -6.2666 17.7266 -9.3916c-1.41504 -7.11914 -3.66602 -14.0449 -6.70605 -20.6367c-6.61914 0.949219 -13.2383 1.8877 -19.8594 2.82227
c-2.81641 -5.0293 -6.2168 -9.70898 -10.1299 -13.9424c2.93457 -6.00781 5.87305 -12.0137 8.82031 -18.0156c-5.33008 -4.92773 -11.2227 -9.20898 -17.5557 -12.7549c-4.79688 4.65625 -9.59863 9.30859 -14.4062 13.957
c-5.2373 -2.41406 -10.7373 -4.2002 -16.3926 -5.32617c-1.15625 -6.58594 -2.30859 -13.1719 -3.45312 -19.7598c-7.20703 -0.853516 -14.4893 -0.853516 -21.6973 0c-1.14648 6.58789 -2.2959 13.1738 -3.45508 19.7598
c-5.65332 1.12598 -11.1553 2.91211 -16.3896 5.32617c-4.80859 -4.64844 -9.60938 -9.30078 -14.4092 -13.957c-6.33105 3.5459 -12.2256 7.82715 -17.5557 12.7549c2.94727 6.00195 5.8877 12.0078 8.82227 18.0156c-3.91211 4.2334 -7.31348 8.91309 -10.1299 13.9424
c-6.62109 -0.93457 -13.2422 -1.87305 -19.8613 -2.82227c-3.03809 6.5918 -5.28809 13.5176 -6.7041 20.6367c5.91309 3.125 11.8213 6.25391 17.7246 9.3916c-0.676758 5.72363 -0.676758 11.5098 0 17.2344c-5.90332 3.13477 -11.8115 6.2666 -17.7246 9.38965
c1.41602 7.11816 3.66602 14.0459 6.7041 20.6367c6.61914 -0.947266 13.2402 -1.88867 19.8613 -2.82031c2.81641 5.0293 6.21777 9.70898 10.1299 13.9424c-2.93457 6.00781 -5.875 12.0137 -8.82227 18.0146c5.33008 4.92871 11.2246 9.20801 17.5557 12.7559
c4.7998 -4.65918 9.60059 -9.31152 14.4092 -13.957c5.23438 2.41406 10.7363 4.2002 16.3896 5.3252c1.15918 6.58594 2.30859 13.1719 3.45508 19.7607c7.20801 0.853516 14.4902 0.853516 21.6973 0zM121.179 359.243c-20.7148 0 -37.5322 -16.8174 -37.5322 -37.5322
c0 -20.7158 16.8174 -37.5322 37.5322 -37.5322c20.7158 0 37.5322 16.8164 37.5322 37.5322c0 20.7148 -16.8164 37.5322 -37.5322 37.5322zM121.904 420.271c3.39062 -0.0371094 6.76562 -0.236328 10.1377 -0.59668l5.34668 -0.613281l2.52441 -14.4883l1.01367 -5.78027
c0.683594 -0.175781 1.36133 -0.360352 2.04102 -0.550781c0.75 -0.217773 1.49609 -0.441406 2.24219 -0.675781c1.48828 -0.476562 2.96094 -0.990234 4.42285 -1.54395l0.544922 -0.210938l0.331055 -0.132812l4.21777 4.08008l10.5566 10.2373
c1.77344 -1 3.55176 -1.99316 5.31738 -3.00879c2.92383 -1.70996 5.76953 -3.5459 8.51074 -5.53711c2.93945 -2.13477 5.74316 -4.43652 8.43652 -6.87012l3.96484 -3.64062l-6.47168 -13.2031l-2.57812 -5.27246c0.447266 -0.542969 0.888672 -1.0918 1.32617 -1.64551
c0.478516 -0.615234 0.951172 -1.2373 1.41699 -1.86328c0.924805 -1.26172 1.81348 -2.54199 2.66992 -3.84961l0.316406 -0.491211l0.191406 -0.300781l5.81055 0.822266l14.5586 2.0752c0.845703 -1.85059 1.70117 -3.69922 2.53223 -5.55859
c1.36133 -3.10254 2.58398 -6.26074 3.63281 -9.4834c1.12109 -3.45215 2.03711 -6.96484 2.78516 -10.5166l1.06934 -5.27637l-12.998 -6.87598l-5.18457 -2.75c0.0429688 -0.705078 0.0761719 -1.40723 0.105469 -2.1123
c0.0273438 -0.779297 0.0439453 -1.56055 0.0517578 -2.3418c0.00585938 -1.5625 -0.0292969 -3.12109 -0.103516 -4.68066l-0.03125 -0.586914l-0.0224609 -0.354492l5.18457 -2.75l12.998 -6.87793c-0.404297 -1.99609 -0.799805 -3.99316 -1.21875 -5.98535
c-0.722656 -3.30957 -1.58887 -6.58398 -2.63574 -9.80664c-1.12305 -3.45215 -2.44531 -6.83203 -3.92871 -10.1455l-2.23633 -4.89746l-14.5586 2.07617l-5.81055 0.823242c-0.37793 -0.594727 -0.762695 -1.18359 -1.1543 -1.76953
c-0.4375 -0.646484 -0.880859 -1.28711 -1.33496 -1.92578c-0.914062 -1.26562 -1.85645 -2.50977 -2.83496 -3.72754l-0.371094 -0.454102l-0.225586 -0.273438l2.57812 -5.27246l6.47168 -13.2051c-1.5 -1.37598 -2.99219 -2.76074 -4.50293 -4.12598
c-2.71094 -2.41406 -5.5332 -4.69629 -8.48633 -6.80762c-2.75684 -1.9707 -5.61426 -3.78613 -8.55273 -5.47559l-4.6875 -2.64844l-10.5566 10.2373l-4.21777 4.08105c-0.654297 -0.258789 -1.31348 -0.507812 -1.97461 -0.75293
c-0.733398 -0.264648 -1.47168 -0.523438 -2.21094 -0.772461c-1.48438 -0.489258 -2.97852 -0.936523 -4.48535 -1.34961l-0.56543 -0.148438l-0.345703 -0.0898438l-1.01367 -5.7793l-2.52441 -14.4883c-2.02246 -0.231445 -4.04492 -0.472656 -6.06934 -0.689453
c-3.6123 -0.361328 -7.23535 -0.547852 -10.8662 -0.520508c-3.3877 0.0244141 -6.76758 0.236328 -10.1377 0.59668l-5.34863 0.613281l-2.52441 14.4883l-1.01367 5.7793c-0.681641 0.176758 -1.36133 0.361328 -2.03906 0.551758
c-0.75 0.21582 -1.49805 0.441406 -2.24219 0.673828c-1.4873 0.478516 -2.96094 0.992188 -4.42188 1.5459l-0.547852 0.210938l-0.329102 0.130859l-4.2168 -4.08105l-10.5596 -10.2373c-1.77148 1.00293 -3.5498 1.99609 -5.31543 3.01172
c-3.13477 1.8291 -6.17578 3.80859 -9.09766 5.96387c-2.72656 2.0127 -5.33594 4.17188 -7.84961 6.44336l-3.9668 3.63867l6.47363 13.2051l2.57812 5.27246c-0.449219 0.542969 -0.888672 1.0918 -1.32617 1.64551c-0.480469 0.615234 -0.953125 1.2373 -1.41895 1.8623
c-0.922852 1.26074 -1.81152 2.54297 -2.66797 3.85059l-0.318359 0.491211l-0.191406 0.300781l-5.81055 -0.823242l-14.5586 -2.07617c-0.845703 1.85254 -1.69922 3.70117 -2.53223 5.56055c-1.45898 3.32422 -2.75586 6.71191 -3.85254 10.1729
c-1.02344 3.23047 -1.86523 6.51172 -2.56348 9.82715l-1.06934 5.27441l12.998 6.87793l5.18457 2.75c-0.0449219 0.702148 -0.078125 1.40723 -0.107422 2.10938c-0.0244141 0.78125 -0.0410156 1.56055 -0.0517578 2.3418
c-0.00390625 1.5625 0.0292969 3.12305 0.103516 4.68359l0.0332031 0.584961l0.0224609 0.356445l-5.18457 2.75l-12.998 6.87598c0.404297 1.99512 0.799805 3.99316 1.21875 5.9873c0.772461 3.5459 1.71582 7.0498 2.86426 10.4941
c1.06934 3.21582 2.31445 6.36426 3.70117 9.45801l2.2334 4.89551l14.5586 -2.0752l5.81055 -0.822266c0.37793 0.594727 0.764648 1.18359 1.1543 1.76953c0.439453 0.646484 0.882812 1.28711 1.33496 1.92578c0.914062 1.26562 1.85938 2.50684 2.83691 3.72559
l0.369141 0.456055l0.227539 0.273438l-2.57812 5.27246l-6.47363 13.2031c1.5 1.37793 2.99414 2.76172 4.50488 4.12793c2.71094 2.41406 5.5332 4.69629 8.48438 6.80762c2.75684 1.9707 5.61621 3.78613 8.55469 5.47559l4.68555 2.64551l10.5596 -10.2373
l4.2168 -4.08008c0.655273 0.258789 1.31348 0.509766 1.97266 0.753906c0.736328 0.265625 1.47168 0.522461 2.21191 0.773438c1.4834 0.487305 2.97754 0.936523 4.48633 1.34863l0.56543 0.149414l0.34375 0.0888672l1.01367 5.78027l2.52441 14.4883
c2.02441 0.231445 4.04492 0.47168 6.07031 0.689453c2.89062 0.288086 5.78516 0.458008 8.69141 0.511719c0.724609 0.00878906 1.4502 0.0107422 2.17578 0.00878906zM63.1611 288.087c1.16406 -1.98926 2.41406 -3.9248 3.76758 -5.79004
c1.35547 -1.86523 2.80957 -3.65137 4.34375 -5.37402l0.331055 -0.364258l3.23535 -3.52734l-6.28125 -12.8486l-2.30664 -4.7041c0.600586 -0.5 1.20996 -0.989258 1.82324 -1.47363c2 -1.55664 4.05762 -3.03027 6.17773 -4.4209l0.533203 -0.341797l0.375 -0.238281
l3.7627 3.64746l10.2773 9.94531c1.75293 -0.799805 3.49609 -1.61426 5.25781 -2.3877c2.11816 -0.911133 4.27051 -1.72559 6.46973 -2.42188c2.19629 -0.696289 4.42871 -1.27051 6.68555 -1.74512l4.68945 -0.951172c1.125 -6.41602 2.25098 -12.832 3.37012 -19.25
c0.779297 -0.0498047 1.55762 -0.0878906 2.33984 -0.118164c2.53418 -0.0849609 5.06445 -0.0664062 7.59668 0.0556641l0.631836 0.0351562l0.444336 0.0273438l0.899414 5.16406l2.46973 14.0859c1.88574 0.382812 3.77637 0.748047 5.65527 1.1582
c2.24902 0.507812 4.47266 1.11328 6.65918 1.84277c2.18555 0.726562 4.3291 1.57422 6.43262 2.51758l4.35352 1.9873c4.68164 -4.53027 9.36523 -9.05859 14.04 -13.5928c0.661133 0.418945 1.31445 0.845703 1.96484 1.2793
c2.09961 1.4209 4.13672 2.92383 6.11328 4.51074l0.491211 0.400391l0.341797 0.28418l-2.30664 4.7041l-6.2832 12.8486c1.30176 1.41895 2.61523 2.82422 3.89648 4.26074c1.52051 1.73242 2.96094 3.5293 4.30371 5.4043
c1.34082 1.87598 2.57617 3.81934 3.72461 5.81934l2.35449 4.16797c6.44824 -0.914062 12.9004 -1.82617 19.3467 -2.74609c0.288086 0.727539 0.566406 1.45703 0.837891 2.19043c0.862305 2.38281 1.62695 4.79492 2.29395 7.24316l0.161133 0.611328l0.112305 0.430664
l-4.63379 2.45215l-12.6328 6.69922c0.219727 1.91309 0.456055 3.82422 0.646484 5.73828c0.210938 2.29492 0.321289 4.59668 0.304688 6.90137s-0.162109 4.60449 -0.40625 6.89648l-0.544922 4.75391c5.75488 3.05273 11.5078 6.10742 17.2666 9.1543
c-0.194336 0.755859 -0.400391 1.51074 -0.611328 2.2627c-0.702148 2.4375 -1.50195 4.83691 -2.39941 7.20801l-0.230469 0.59082l-0.164062 0.412109l-5.18652 -0.740234l-14.1602 -2.00391c-0.947266 1.67676 -1.87793 3.36133 -2.84961 5.02148
c-1.17773 1.98145 -2.44141 3.9082 -3.80957 5.76367c-1.37012 1.85449 -2.83691 3.63086 -4.38281 5.33984l-3.2373 3.52734c2.8623 5.85254 5.72168 11.7051 8.58984 17.5527c-0.602539 0.5 -1.21191 0.988281 -1.82324 1.47363
c-2.00195 1.55664 -4.05957 3.02734 -6.17969 4.41797l-0.533203 0.344727l-0.375 0.238281l-3.76074 -3.64746l-10.2793 -9.94531c-1.75098 0.799805 -3.49414 1.61426 -5.25586 2.38672c-2.11719 0.910156 -4.27246 1.72656 -6.46973 2.42285
c-2.19824 0.696289 -4.42871 1.27051 -6.68555 1.74512l-4.68945 0.951172c-1.125 6.41602 -2.25098 12.832 -3.36914 19.25c-0.779297 0.0478516 -1.56055 0.0869141 -2.3418 0.118164c-2.5332 0.0830078 -5.06348 0.0644531 -7.5957 -0.0556641l-0.633789 -0.0351562
l-0.441406 -0.0273438l-0.901367 -5.16406l-2.46875 -14.0859c-1.8877 -0.383789 -3.77539 -0.748047 -5.65723 -1.1582c-2.24902 -0.507812 -4.4707 -1.11523 -6.65625 -1.84277c-2.18848 -0.729492 -4.33203 -1.57715 -6.43457 -2.51758l-4.35449 -1.9873
c-4.68164 4.53027 -9.36328 9.05859 -14.04 13.5928c-0.65918 -0.418945 -1.31445 -0.847656 -1.96289 -1.28125c-2.09961 -1.42188 -4.13672 -2.92383 -6.11328 -4.50879l-0.491211 -0.400391l-0.341797 -0.28418l2.30664 -4.70605l6.28125 -12.8467
c-1.30176 -1.41992 -2.61523 -2.82422 -3.89453 -4.2627c-1.52051 -1.73242 -2.96289 -3.5293 -4.30371 -5.40234c-1.34082 -1.87598 -2.57617 -3.82227 -3.72461 -5.81934l-2.35352 -4.16797c-6.44922 0.914062 -12.9004 1.82617 -19.3496 2.74414
c-0.288086 -0.725586 -0.564453 -1.45703 -0.835938 -2.18848c-0.863281 -2.38574 -1.62598 -4.79785 -2.29395 -7.24316l-0.163086 -0.611328l-0.110352 -0.430664l4.63184 -2.45215l12.6348 -6.70215c-0.21875 -1.91211 -0.455078 -3.82129 -0.646484 -5.73633
c-0.210938 -2.2959 -0.323242 -4.5957 -0.304688 -6.90039c0.0166016 -2.30664 0.160156 -4.60449 0.40625 -6.89648l0.544922 -4.75684c-5.75488 -3.05273 -11.5098 -6.10449 -17.2666 -9.15137c0.195312 -0.758789 0.400391 -1.51074 0.611328 -2.2627
c0.703125 -2.4375 1.50293 -4.83691 2.40039 -7.20801l0.227539 -0.59082l0.164062 -0.414062l5.18848 0.739258l14.1611 2.00684c0.866211 -1.53418 1.72168 -3.07129 2.59863 -4.59668zM121.742 365.498c2.04199 -0.0400391 4.07617 -0.193359 6.09473 -0.501953
c4.09375 -0.625977 8.09277 -1.83789 11.8438 -3.59082c4.46191 -2.08496 8.56152 -4.92676 12.084 -8.36621c3.51855 -3.43652 6.45605 -7.46289 8.64648 -11.8662c1.83789 -3.69727 3.14746 -7.65527 3.87305 -11.7197
c0.816406 -4.56738 0.90332 -9.26367 0.260742 -13.8574c-0.625977 -4.45801 -1.94531 -8.81445 -3.90039 -12.8701c-2.29004 -4.74707 -5.44141 -9.07031 -9.25684 -12.707c-3.95215 -3.76758 -8.60449 -6.79102 -13.6592 -8.85742
c-5.24121 -2.14258 -10.8877 -3.24121 -16.5498 -3.24121c-5.66113 0 -11.3086 1.09863 -16.5498 3.24121c-5.05469 2.06641 -9.70703 5.08984 -13.6592 8.85742c-3.81543 3.63672 -6.96875 7.95996 -9.25684 12.707c-1.95605 4.05566 -3.27637 8.41211 -3.90039 12.8701
c-0.644531 4.59375 -0.557617 9.29004 0.258789 13.8574c0.727539 4.06445 2.03516 8.02246 3.87402 11.7197c2.19043 4.40332 5.12891 8.42969 8.64746 11.8662c3.52051 3.43945 7.62207 6.28125 12.082 8.36621c3.75098 1.75293 7.75098 2.96484 11.8457 3.59082
c2.01855 0.308594 4.05078 0.461914 6.09473 0.501953c0.563477 0.00390625 0.561523 0.00390625 1.12695 0zM120.772 352.982c-1.46094 -0.0263672 -2.91602 -0.136719 -4.36035 -0.358398c-2.91602 -0.445312 -5.76758 -1.30957 -8.43848 -2.55957
c-6.16113 -2.87598 -11.3027 -7.7793 -14.4756 -13.791c-1.36914 -2.59473 -2.37012 -5.38379 -2.95898 -8.25879c-0.716797 -3.50586 -0.829102 -7.13672 -0.332031 -10.6826c0.446289 -3.17676 1.38477 -6.2793 2.7793 -9.16992
c1.6377 -3.39453 3.8916 -6.48438 6.62109 -9.08594c2.82227 -2.69141 6.14648 -4.85352 9.75879 -6.33105c3.74121 -1.5293 7.77148 -2.31055 11.8125 -2.31055s8.07227 0.78125 11.8125 2.31055c3.6123 1.47754 6.93652 3.63965 9.75879 6.33105
c2.72754 2.60156 4.98438 5.69141 6.62109 9.08594c1.39258 2.89062 2.33398 5.99316 2.7793 9.16992c0.495117 3.5459 0.385742 7.17676 -0.332031 10.6826c-0.615234 2.99902 -1.67578 5.90234 -3.1377 8.59277c-3.18652 5.86035 -8.25195 10.6348 -14.2969 13.457
c-2.67285 1.25 -5.52246 2.11426 -8.43848 2.55957c-1.44434 0.22168 -2.90137 0.332031 -4.3623 0.358398c-0.404297 0.00292969 -0.402344 0.00292969 -0.810547 0zM289.743 278.351c1.28125 -7.375 2.57129 -14.749 3.86523 -22.1221
c6.33203 -1.25977 12.4893 -3.25977 18.3525 -5.96289c5.38281 5.20117 10.7588 10.4102 16.1299 15.626c7.09082 -3.97168 13.6865 -8.7627 19.6543 -14.2803c-3.2998 -6.71973 -6.58984 -13.4434 -9.875 -20.1689c4.38086 -4.74023 8.1875 -9.97949 11.3408 -15.6104
c7.41309 1.04395 14.8232 2.09766 22.2344 3.1582c3.40332 -7.37793 5.92285 -15.1348 7.50781 -23.1045c-6.61914 -3.49609 -13.2344 -7.00195 -19.8467 -10.5127c0.758789 -6.4082 0.758789 -12.8857 0 -19.2939c6.6123 -3.5127 13.2275 -7.0166 19.8467 -10.5146
c-1.58496 -7.96973 -4.10449 -15.7236 -7.50781 -23.1045c-7.41113 1.0625 -14.8213 2.11328 -22.2344 3.16016c-3.15332 -5.63086 -6.95996 -10.8701 -11.3408 -15.6104c3.28516 -6.72559 6.5752 -13.4492 9.875 -20.1689
c-5.96777 -5.5166 -12.5635 -10.3105 -19.6543 -14.2803c-5.37109 5.21387 -10.7471 10.4219 -16.1299 15.626c-5.86328 -2.70312 -12.0205 -4.70312 -18.3525 -5.96289c-1.29395 -7.37305 -2.58398 -14.7461 -3.86523 -22.1221
c-8.06934 -0.956055 -16.2227 -0.956055 -24.292 0c-1.2832 7.37598 -2.57031 14.749 -3.86719 22.1221c-6.3291 1.25977 -12.4893 3.25977 -18.3506 5.96289c-5.38281 -5.2041 -10.7578 -10.4121 -16.1318 -15.626c-7.08789 3.96973 -13.6865 8.76367 -19.6533 14.2803
c3.29883 6.71973 6.59082 13.4434 9.87598 20.1689c-4.37988 4.74023 -8.1875 9.97949 -11.3408 15.6104c-7.41211 -1.04688 -14.8252 -2.09766 -22.2363 -3.16016c-3.40137 7.38086 -5.9209 15.1348 -7.50488 23.1045c6.61914 3.49805 13.2334 7.00195 19.8438 10.5146
c-0.758789 6.4082 -0.758789 12.8857 0 19.2939c-6.61035 3.51074 -13.2246 7.0166 -19.8438 10.5127c1.58398 7.96973 4.10352 15.7266 7.50488 23.1045c7.41113 -1.06055 14.8242 -2.11426 22.2363 -3.1582c3.15332 5.63086 6.96094 10.8701 11.3408 15.6104
c-3.28516 6.72559 -6.57715 13.4492 -9.87598 20.1689c5.9668 5.51758 12.5654 10.3086 19.6533 14.2803c5.37402 -5.21582 10.749 -10.4248 16.1318 -15.626c5.86133 2.70312 12.0215 4.70312 18.3506 5.96289c1.29688 7.37305 2.58398 14.7471 3.86719 22.1221
c8.06934 0.956055 16.2227 0.956055 24.292 0zM277.598 222.338c-25.7256 0 -46.6123 -20.8857 -46.6123 -46.6113c0 -25.7266 20.8867 -46.6123 46.6123 -46.6123s46.6113 20.8857 46.6113 46.6123c0 25.7256 -20.8857 46.6113 -46.6113 46.6113zM244.589 257.662
c0.672852 0.273438 1.35059 0.533203 2.02734 0.791016c0.610352 0.225586 1.22266 0.445312 1.83594 0.664062c2.45898 0.848633 4.94629 1.5957 7.46777 2.24512l0.220703 0.0537109c1.32227 7.53809 2.63379 15.0791 3.94922 22.6191
c2.07617 0.236328 4.15332 0.485352 6.23145 0.708008c3.74707 0.373047 7.50781 0.582031 11.2764 0.582031c4.03711 0 8.06445 -0.239258 12.0781 -0.667969l5.42969 -0.62207l2.73047 -15.6699l1.21777 -6.94922c0.703125 -0.173828 1.40625 -0.362305 2.10449 -0.554688
c0.626953 -0.173828 1.25098 -0.354492 1.875 -0.540039c2.48926 -0.758789 4.94238 -1.61523 7.3623 -2.57324l0.210938 -0.0859375c5.50098 5.32227 10.9951 10.6514 16.4893 15.9785c1.81836 -1.02734 3.64453 -2.04785 5.45703 -3.08984
c3.48438 -2.03711 6.86719 -4.2373 10.1152 -6.63379c3.0332 -2.23633 5.93555 -4.6377 8.72852 -7.16406l4.02832 -3.69434l-7.00293 -14.2803l-3.09961 -6.33887c0.46875 -0.556641 0.925781 -1.12012 1.37891 -1.68652
c0.40332 -0.510742 0.802734 -1.02344 1.19922 -1.53809c1.56836 -2.0791 3.04883 -4.21387 4.44336 -6.41016l0.120117 -0.193359c7.57812 1.07422 15.1553 2.15332 22.7305 3.23438c0.868164 -1.90234 1.74512 -3.7998 2.59863 -5.70703
c1.62402 -3.69629 3.06738 -7.46387 4.28516 -11.3135c1.13965 -3.5918 2.07715 -7.23828 2.85156 -10.9258l1.08594 -5.35449l-14.0576 -7.43848l-6.23438 -3.30566c0.0507812 -0.724609 0.0908203 -1.4502 0.125 -2.1748
c0.0253906 -0.649414 0.046875 -1.29883 0.0625 -1.95117c0.0488281 -2.60059 -0.00878906 -5.19922 -0.170898 -7.7959l-0.0166016 -0.226562c6.76074 -3.58691 13.5264 -7.16504 20.292 -10.7451c-0.415039 -2.04883 -0.821289 -4.09961 -1.25293 -6.14551
c-0.858398 -3.94238 -1.90723 -7.83984 -3.18359 -11.6709c-1.18945 -3.5752 -2.5752 -7.07617 -4.11523 -10.5146l-2.26953 -4.96973l-15.7441 2.24316l-6.98633 0.991211c-0.384766 -0.617188 -0.779297 -1.22559 -1.17871 -1.83301
c-0.359375 -0.541016 -0.723633 -1.0791 -1.09277 -1.61523c-1.49219 -2.13379 -3.06445 -4.20117 -4.72363 -6.20605l-0.146484 -0.173828c3.3623 -6.87695 6.7334 -13.7471 10.1025 -20.6191c-1.54102 -1.41309 -3.07422 -2.83496 -4.62695 -4.23633
c-3.01367 -2.68457 -6.15039 -5.2207 -9.43359 -7.57129c-3.06445 -2.19238 -6.24609 -4.21094 -9.5127 -6.08789l-4.75586 -2.68652l-11.4199 11.0713l-5.06934 4.90527c-0.672852 -0.271484 -1.35059 -0.53125 -2.03027 -0.789062
c-0.610352 -0.224609 -1.2207 -0.448242 -1.83301 -0.663086c-2.46191 -0.849609 -4.94922 -1.59863 -7.46875 -2.24609l-0.220703 -0.0556641c-1.32227 -7.53809 -2.63477 -15.0791 -3.94824 -22.6172c-2.07715 -0.239258 -4.15332 -0.484375 -6.23242 -0.708008
c-4.01562 -0.401367 -8.0459 -0.609375 -12.083 -0.579102c-3.76758 0.0273438 -7.52637 0.263672 -11.2715 0.665039l-5.42871 0.62207l-2.73145 15.668l-1.21777 6.94922c-0.705078 0.175781 -1.40625 0.364258 -2.10645 0.554688
c-0.626953 0.175781 -1.25098 0.356445 -1.87207 0.541992c-2.49219 0.758789 -4.94434 1.61523 -7.36426 2.57324l-0.208984 0.0839844c-5.50098 -5.32031 -10.9951 -10.6494 -16.4893 -15.9766c-1.82129 1.02734 -3.64551 2.04883 -5.45898 3.08984
c-3.48535 2.03711 -6.86621 4.2373 -10.1143 6.63379c-3.03223 2.23633 -5.93457 4.6377 -8.73047 7.16406l-4.02539 3.69434l7.00195 14.2803l3.09766 6.33887c-0.466797 0.556641 -0.923828 1.12012 -1.37793 1.68652
c-0.404297 0.510742 -0.802734 1.02344 -1.19727 1.53809c-1.56836 2.07715 -3.04883 4.21387 -4.44336 6.41113l-0.120117 0.192383c-7.57812 -1.07422 -15.1553 -2.15527 -22.7334 -3.23438c-0.867188 1.90039 -1.74512 3.79785 -2.59863 5.70703
c-1.5127 3.4502 -2.87207 6.96094 -4.03711 10.5459c-1.24805 3.83691 -2.2666 7.74219 -3.09668 11.6934l-1.08594 5.35449l14.0576 7.43848l6.23145 3.30664c-0.0507812 0.723633 -0.0878906 1.4502 -0.123047 2.17383
c-0.0253906 0.649414 -0.0488281 1.29883 -0.0644531 1.94922c-0.046875 2.60254 0.00878906 5.19922 0.171875 7.79785l0.015625 0.227539c-6.76074 3.58398 -13.5264 7.16406 -20.2891 10.7441c0.415039 2.04883 0.821289 4.09961 1.25 6.14355
c0.802734 3.68262 1.76855 7.32227 2.93262 10.9053c1.24805 3.83984 2.7168 7.59766 4.36719 11.2822l2.26855 4.96973l15.7471 -2.24609l6.98633 -0.988281c0.384766 0.617188 0.779297 1.22559 1.17773 1.83301c0.360352 0.541016 0.724609 1.0791 1.09277 1.61523
c1.49023 2.13184 3.06348 4.19922 4.72168 6.20605l0.146484 0.173828c-3.3623 6.875 -6.73047 13.7471 -10.0996 20.6191c1.54004 1.41309 3.07422 2.83301 4.62402 4.2373c2.81445 2.50586 5.7334 4.88379 8.78125 7.09668c3.26758 2.37402 6.66602 4.5498 10.165 6.56152
l4.75879 2.68652c5.49414 -5.32715 10.9883 -10.6562 16.4893 -15.9785zM246.872 106.409c2.38672 -1.04883 4.81641 -1.98828 7.29395 -2.79297c2.48047 -0.805664 4.99805 -1.47363 7.54492 -2.02832l0.545898 -0.115234l4.75391 -0.962891l2.67773 -15.2695
l1.10645 -6.35938c0.839844 -0.0576172 1.67773 -0.104492 2.51758 -0.143555c3.57227 -0.144531 7.14062 -0.104492 10.7119 0.118164l0.373047 0.0253906l1.10938 6.35938l2.67773 15.2695c1.76562 0.356445 3.53516 0.707031 5.29883 1.07812
c0.728516 0.158203 1.45215 0.325195 2.17676 0.499023c2.16699 0.541016 4.3125 1.16016 6.42676 1.88184c2.11328 0.72168 4.18945 1.54297 6.23438 2.44043l0.509766 0.227539l4.41309 2.01367l11.1387 -10.7764l4.63574 -4.49414
c0.712891 0.445312 1.41797 0.899414 2.12109 1.36133c2.97461 1.98438 5.83984 4.11426 8.5957 6.39258l0.288086 0.241211l-2.84277 5.7959l-6.80664 13.9248c1.21777 1.33008 2.44336 2.65234 3.6543 3.98828c0.494141 0.557617 0.983398 1.11914 1.46582 1.68457
c1.43652 1.70996 2.80762 3.4707 4.09277 5.29688c1.28516 1.82812 2.48242 3.71289 3.61035 5.64062l0.27832 0.484375l2.38477 4.22266l15.3486 -2.1709l6.3916 -0.912109c0.313477 0.779297 0.617188 1.56348 0.914062 2.34766
c1.24121 3.35547 2.30664 6.76074 3.19727 10.2256l0.0908203 0.364258l-5.70605 3.02051l-13.6934 7.26172c0.207031 1.79102 0.419922 3.58301 0.613281 5.37598c0.0742188 0.740234 0.138672 1.48242 0.196289 2.22461
c0.15625 2.22754 0.230469 4.45703 0.197266 6.69141c-0.0322266 2.23438 -0.173828 4.46191 -0.393555 6.68457l-0.0605469 0.556641l-0.552734 4.81934l13.6934 7.26172l5.70605 3.01855c-0.202148 0.817383 -0.417969 1.62891 -0.640625 2.43848
c-0.964844 3.44336 -2.10645 6.82617 -3.42188 10.1504l-0.139648 0.348633l-6.3916 -0.90918l-15.3486 -2.1748c-0.885742 1.57129 -1.76562 3.14648 -2.66309 4.70801c-0.375977 0.644531 -0.758789 1.2832 -1.14844 1.91602
c-1.18359 1.89355 -2.43359 3.74316 -3.77246 5.53125c-1.34082 1.78711 -2.76367 3.50879 -4.24805 5.17676l-0.375977 0.413086l-3.27832 3.5752l6.80664 13.9258l2.84277 5.79492c-0.642578 0.539062 -1.29492 1.07031 -1.95117 1.59473
c-2.80566 2.21777 -5.71484 4.28516 -8.73535 6.20117l-0.318359 0.200195l-4.63574 -4.49414l-11.1387 -10.7803c-1.64062 0.75 -3.27637 1.50879 -4.92285 2.24414c-0.680664 0.298828 -1.36719 0.591797 -2.05371 0.875
c-2.07227 0.836914 -4.16895 1.5957 -6.30371 2.25488s-4.29688 1.21582 -6.48047 1.69141l-0.547852 0.116211l-4.75098 0.962891l-2.67773 15.2686l-1.10938 6.35742c-0.836914 0.0605469 -1.6748 0.104492 -2.51465 0.145508
c-3.57324 0.144531 -7.1416 0.104492 -10.7119 -0.118164l-0.375977 -0.0273438l-1.10645 -6.35742l-2.67773 -15.2686c-1.76562 -0.357422 -3.53613 -0.708008 -5.2998 -1.0791c-0.728516 -0.158203 -1.4541 -0.325195 -2.17773 -0.500977
c-2.16699 -0.539062 -4.31152 -1.1582 -6.4248 -1.87988s-4.19043 -1.54297 -6.23633 -2.44043l-0.510742 -0.227539l-4.41016 -2.0166l-11.1416 10.7803l-4.63379 4.49414c-0.711914 -0.446289 -1.41699 -0.90332 -2.12012 -1.3623
c-2.97656 -1.9834 -5.83984 -4.11328 -8.59668 -6.3916l-0.287109 -0.242188l2.83984 -5.79492l6.80957 -13.9258c-1.21875 -1.3291 -2.44531 -2.65234 -3.6543 -3.98828c-0.494141 -0.556641 -0.984375 -1.11816 -1.4668 -1.68457
c-1.43555 -1.71191 -2.80664 -3.47363 -4.09277 -5.29883c-1.28711 -1.82617 -2.48438 -3.70996 -3.6123 -5.64062l-0.27832 -0.482422l-2.38477 -4.22559l-15.3477 2.1748l-6.38965 0.90918c-0.316406 -0.777344 -0.617188 -1.56152 -0.914062 -2.34766
c-1.24414 -3.35352 -2.30859 -6.75879 -3.19727 -10.2227l-0.0927734 -0.367188l5.70508 -3.01855l13.6934 -7.26172c-0.204102 -1.79102 -0.419922 -3.58203 -0.610352 -5.37598c-0.0742188 -0.740234 -0.141602 -1.48242 -0.197266 -2.22461
c-0.157227 -2.22754 -0.229492 -4.45996 -0.197266 -6.69141c0.0322266 -2.23438 0.171875 -4.46191 0.394531 -6.68457l0.0576172 -0.556641l0.552734 -4.81934l-13.6934 -7.26172l-5.70508 -3.02051c0.204102 -0.814453 0.419922 -1.62695 0.639648 -2.43652
c0.967773 -3.44336 2.10742 -6.82617 3.42285 -10.1504l0.141602 -0.350586l6.38965 0.912109l15.3477 2.1709c0.885742 -1.56836 1.76562 -3.14355 2.66309 -4.70703c0.375977 -0.642578 0.758789 -1.28125 1.14844 -1.91406
c1.18359 -1.89551 2.43652 -3.74219 3.77539 -5.53125c1.33887 -1.78711 2.7627 -3.50781 4.24805 -5.17676l0.375977 -0.415039l3.27832 -3.57324l-6.80957 -13.9248l-2.83984 -5.7959c0.642578 -0.541016 1.29395 -1.07031 1.94824 -1.59668
c2.80762 -2.21777 5.7168 -4.2832 8.73535 -6.19922l0.320312 -0.199219l4.63379 4.49414l11.1416 10.7764c1.63965 -0.74707 3.27539 -1.50586 4.9209 -2.24121zM278.279 228.593c2.46387 -0.0488281 4.91895 -0.234375 7.35938 -0.605469
c4.94043 -0.755859 9.76855 -2.2207 14.2969 -4.33594c5.38574 -2.51758 10.3369 -5.94922 14.5889 -10.1025c4.24902 -4.14844 7.7959 -9.00879 10.4414 -14.3291c2.21777 -4.46094 3.79785 -9.23828 4.6748 -14.1455c0.986328 -5.5127 1.09082 -11.1855 0.313477 -16.7305
c-0.753906 -5.38281 -2.3457 -10.6406 -4.70801 -15.5361c-2.7627 -5.73535 -6.57031 -10.9531 -11.1787 -15.3457c-4.76953 -4.5498 -10.3867 -8.19922 -16.4893 -10.6934c-6.3291 -2.58691 -13.1455 -3.91406 -19.9805 -3.91406s-13.6543 1.32715 -19.9814 3.91406
c-6.10156 2.49414 -11.7188 6.14355 -16.4912 10.6934c-4.60547 4.39258 -8.41309 9.6123 -11.1787 15.3457c-2.35938 4.89551 -3.95312 10.1533 -4.70801 15.5361c-0.774414 5.54492 -0.669922 11.2178 0.313477 16.7305c0.879883 4.90723 2.45703 9.68457 4.67773 14.1455
c2.64453 5.32031 6.19043 10.1807 10.4404 14.3291c4.25293 4.15332 9.20215 7.58496 14.5889 10.1025c4.52734 2.11523 9.35742 3.58008 14.2969 4.33594c2.43848 0.371094 4.89355 0.556641 7.35938 0.605469c0.682617 0.00292969 0.682617 0.00292969 1.36426 0z
M277.075 216.078c-1.88574 -0.0371094 -3.7627 -0.178711 -5.62598 -0.463867c-3.76562 -0.575195 -7.44336 -1.69141 -10.8936 -3.30176c-8.09668 -3.78418 -14.8232 -10.2754 -18.8994 -18.2266c-1.72852 -3.37598 -2.97656 -6.99609 -3.69141 -10.7197
c-0.837891 -4.37109 -0.946289 -8.88086 -0.330078 -13.2871c0.573242 -4.09961 1.78711 -8.10645 3.58496 -11.835c2.11426 -4.38086 5.02344 -8.36914 8.54297 -11.7236c3.64258 -3.47363 7.93066 -6.2627 12.5918 -8.16699
c4.82812 -1.97461 10.0273 -2.98145 15.2432 -2.98145c5.21289 0 10.415 1.00684 15.2432 2.98145c4.65918 1.9043 8.94922 4.69336 12.5918 8.16699c3.51953 3.35449 6.42871 7.34277 8.54004 11.7236c1.79785 3.72852 3.01172 7.73535 3.58691 11.835
c0.617188 4.40625 0.507812 8.91602 -0.332031 13.2871c-0.711914 3.72363 -1.95996 7.34375 -3.68848 10.7197c-4.07715 7.95117 -10.8047 14.4424 -18.9004 18.2266c-3.4502 1.61035 -7.12988 2.72656 -10.8926 3.30176
c-1.86523 0.285156 -3.74219 0.426758 -5.62695 0.463867c-0.524414 0.00195312 -0.521484 0.00195312 -1.04395 0zM107.658 209.938c0.660156 -3.80176 1.3252 -7.60156 1.99219 -11.4014c3.26367 -0.649414 6.4375 -1.68066 9.45898 -3.07324
c2.77441 2.68066 5.54492 5.36523 8.3125 8.05273c3.6543 -2.04688 7.05371 -4.51562 10.1299 -7.35938c-1.7002 -3.46289 -3.39648 -6.92871 -5.08984 -10.3945c2.25781 -2.44336 4.2207 -5.14355 5.8457 -8.0459c3.82031 0.538086 7.63965 1.08105 11.459 1.62793
c1.75391 -3.80273 3.05273 -7.7998 3.86914 -11.9072c-3.41113 -1.80273 -6.82031 -3.60938 -10.2285 -5.41797c0.390625 -3.30273 0.390625 -6.6416 0 -9.94434c3.4082 -1.81055 6.81738 -3.61621 10.2285 -5.41895
c-0.816406 -4.10742 -2.11523 -8.10352 -3.86914 -11.9072c-3.81934 0.546875 -7.63867 1.08887 -11.459 1.62793c-1.625 -2.90234 -3.58789 -5.60156 -5.8457 -8.04492c1.69336 -3.4668 3.38965 -6.93164 5.08984 -10.3945
c-3.07617 -2.84375 -6.47559 -5.31445 -10.1299 -7.36035c-2.76758 2.6875 -5.53809 5.37207 -8.3125 8.05371c-3.02148 -1.39355 -6.19531 -2.42383 -9.45898 -3.07324c-0.666992 -3.7998 -1.33203 -7.60059 -1.99219 -11.4014
c-4.1582 -0.493164 -8.36035 -0.493164 -12.5195 0c-0.661133 3.80078 -1.32422 7.60156 -1.99316 11.4014c-3.26172 0.649414 -6.43652 1.67969 -9.45703 3.07324c-2.77441 -2.68164 -5.54492 -5.36621 -8.31445 -8.05371
c-3.65332 2.0459 -7.05371 4.5166 -10.1289 7.36035c1.7002 3.46289 3.39648 6.92773 5.08984 10.3945c-2.25781 2.44336 -4.21973 5.14258 -5.84473 8.04492c-3.82031 -0.539062 -7.64062 -1.08105 -11.46 -1.62793c-1.75293 3.80371 -3.05176 7.7998 -3.86816 11.9072
c3.41113 1.80273 6.82031 3.6084 10.2266 5.41895c-0.390625 3.30273 -0.390625 6.6416 0 9.94434c-3.40625 1.80859 -6.81543 3.61523 -10.2266 5.41797c0.816406 4.10742 2.11523 8.10449 3.86816 11.9072c3.81934 -0.546875 7.63965 -1.08984 11.46 -1.62793
c1.625 2.90234 3.58691 5.60254 5.84473 8.0459c-1.69336 3.46582 -3.38965 6.93164 -5.08984 10.3945c3.0752 2.84375 6.47559 5.3125 10.1289 7.35938c2.76953 -2.6875 5.54004 -5.37207 8.31445 -8.05273c3.02051 1.39258 6.19531 2.42383 9.45703 3.07324
c0.668945 3.7998 1.33203 7.59961 1.99316 11.4014c4.15918 0.492188 8.36133 0.492188 12.5195 0zM101.398 184.403c-15.0986 0 -27.3574 -12.2578 -27.3574 -27.3574c0 -15.0986 12.2588 -27.3574 27.3574 -27.3574c15.0996 0 27.3574 12.2588 27.3574 27.3574
c0 15.0996 -12.2578 27.3574 -27.3574 27.3574zM85.1113 202.793c0.640625 0.223633 0.639648 0.223633 1.28223 0.436523l0.679688 0.21582l0.612305 0.18457l0.295898 1.68359l1.79785 10.3252l5.49609 0.610352c2.03613 0.195312 4.07617 0.31543 6.12305 0.31543
c2.04785 0 4.08594 -0.120117 6.12402 -0.31543l5.49414 -0.610352l1.7998 -10.3252l0.294922 -1.68359c0.649414 -0.196289 0.647461 -0.196289 1.29297 -0.400391l0.677734 -0.225586l0.603516 -0.210938l1.22852 1.18945l7.52539 7.29492l4.80371 -2.73633
c1.76367 -1.03906 3.48242 -2.14062 5.13867 -3.34375c1.65723 -1.20312 3.23633 -2.49902 4.76855 -3.85547l4.08789 -3.72168l-4.61328 -9.41211l-0.750977 -1.53516c0.410156 -0.540039 0.408203 -0.540039 0.810547 -1.08398l0.416016 -0.581055l0.363281 -0.524414
l1.69336 0.239258l10.377 1.47949l2.27637 -5.03711c0.81543 -1.87793 1.56055 -3.78027 2.19336 -5.72656c0.632812 -1.94727 1.14844 -3.92383 1.5918 -5.92188l1.11914 -5.41406l-9.26465 -4.90234l-1.51074 -0.800781
c0.0146484 -0.677734 0.0146484 -0.676758 0.0195312 -1.35352l-0.00488281 -0.714844l-0.0146484 -0.638672l1.51074 -0.800781l9.26465 -4.90137l-1.11914 -5.41504c-0.443359 -1.99805 -0.958984 -3.97461 -1.5918 -5.9209
c-0.632812 -1.94824 -1.37793 -3.84961 -2.19336 -5.72656l-2.27637 -5.03809l-10.377 1.47949l-1.69336 0.240234c-0.385742 -0.557617 -0.385742 -0.555664 -0.779297 -1.10645l-0.424805 -0.575195l-0.385742 -0.507812l0.750977 -1.53613l4.61328 -9.41113
l-4.08789 -3.72266c-1.53223 -1.35547 -3.11133 -2.65234 -4.76855 -3.85449c-1.65625 -1.2041 -3.375 -2.30566 -5.13867 -3.34473l-4.80371 -2.7373l-7.52539 7.29688l-1.22852 1.18848c-0.640625 -0.223633 -0.638672 -0.222656 -1.28125 -0.436523l-0.681641 -0.21582
l-0.611328 -0.183594l-0.294922 -1.68359l-1.7998 -10.3271l-5.49414 -0.608398c-2.03809 -0.196289 -4.07617 -0.31543 -6.12402 -0.31543c-2.04688 0 -4.08691 0.119141 -6.12305 0.31543l-5.49609 0.608398l-1.79785 10.3271l-0.295898 1.68359
c-0.649414 0.194336 -0.647461 0.194336 -1.29199 0.399414l-0.679688 0.225586l-0.602539 0.210938l-1.22852 -1.18848l-7.52441 -7.29688l-4.80371 2.7373c-1.76367 1.03906 -3.48438 2.14062 -5.14062 3.34473c-1.65625 1.20215 -3.23438 2.49902 -4.76855 3.85449
l-4.08691 3.72266l4.61426 9.41113l0.750977 1.53613c-0.411133 0.539062 -0.40918 0.538086 -0.810547 1.08301l-0.416016 0.581055l-0.365234 0.525391l-1.69141 -0.240234l-10.377 -1.47949l-2.27832 5.03809c-0.81543 1.87695 -1.55957 3.77832 -2.19141 5.72656
c-0.632812 1.94629 -1.14941 3.92285 -1.59277 5.9209l-1.11816 5.41504l9.26465 4.90137l1.50977 0.800781c-0.0146484 0.678711 -0.0136719 0.676758 -0.0185547 1.35352l0.00488281 0.71582l0.0136719 0.637695l-1.50977 0.800781l-9.26465 4.90234l1.11816 5.41406
c0.443359 1.99805 0.959961 3.97461 1.59277 5.92188c0.631836 1.94629 1.37598 3.84863 2.19141 5.72656l2.27832 5.03711l10.377 -1.47949l1.69141 -0.239258c0.386719 0.556641 0.386719 0.555664 0.78125 1.10547l0.422852 0.575195l0.387695 0.508789
l-0.750977 1.53516l-4.61426 9.41211l4.08691 3.72168c1.53418 1.35645 3.1123 2.65234 4.76855 3.85547s3.37695 2.30469 5.14062 3.34375l4.80371 2.73633c2.91797 -2.82715 5.83301 -5.6582 8.75293 -8.48438zM70.4824 138.516
c0.553711 -0.908203 1.13086 -1.7959 1.75488 -2.65625c0.729492 -1.00293 1.51465 -1.95801 2.33594 -2.8877l3.25098 -3.57031l-4.41113 -9.02051l-0.393555 -0.801758c0.432617 -0.329102 0.873047 -0.645508 1.31445 -0.960938l0.201172 -0.138672l0.640625 0.620117
l7.21582 6.9834l4.40137 -1.98926c0.486328 -0.211914 0.485352 -0.210938 0.976562 -0.416992c0.986328 -0.392578 1.98145 -0.757812 2.99609 -1.07129c1.01562 -0.3125 2.04395 -0.573242 3.08105 -0.803711l4.72852 -0.976562l1.73438 -9.8916l0.15332 -0.879883
c0.541992 -0.0117188 1.08398 -0.00976562 1.62695 -0.00488281l0.245117 0.00488281l0.15332 0.879883l1.7334 9.8916l4.72949 0.976562c0.517578 0.115234 0.515625 0.114258 1.03418 0.237305c1.0293 0.260742 2.0498 0.550781 3.05566 0.894531
c1.00586 0.342773 1.98926 0.736328 2.96387 1.16016l4.40039 1.98926l7.2168 -6.9834l0.640625 -0.620117c0.446289 0.308594 0.882812 0.628906 1.32031 0.951172l0.193359 0.148438l-0.391602 0.801758l-4.41113 9.02051l3.25098 3.57031
c0.351562 0.398438 0.350586 0.396484 0.697266 0.801758c0.680664 0.81543 1.33398 1.64941 1.94531 2.51758c0.612305 0.868164 1.17773 1.7666 1.7168 2.68164l2.39062 4.19531l9.94238 -1.40723l0.883789 -0.125977
c0.179688 0.512695 0.344727 1.02832 0.508789 1.54688l0.0703125 0.232422l-0.789062 0.417969l-8.87109 4.70605l0.53125 4.7998c0.0517578 0.52832 0.0507812 0.526367 0.0947266 1.05762c0.0693359 1.05957 0.109375 2.11816 0.09375 3.18066
s-0.0859375 2.12109 -0.188477 3.17773l-0.53125 4.7998l8.87109 4.70605l0.789062 0.416992c-0.15625 0.520508 -0.326172 1.03516 -0.49707 1.5498l-0.0820312 0.230469l-0.883789 -0.125l-9.94238 -1.4082l-2.39062 4.19629
c-0.269531 0.457031 -0.268555 0.456055 -0.545898 0.910156c-0.56543 0.899414 -1.15625 1.7793 -1.79395 2.62988c-0.637695 0.849609 -1.31641 1.66406 -2.01953 2.45996l-3.25098 3.57031l4.41113 9.02148l0.391602 0.800781
c-0.431641 0.329102 -0.871094 0.646484 -1.3125 0.961914l-0.201172 0.138672l-0.640625 -0.62207l-7.2168 -6.98145l-4.40039 1.98828c-0.489258 0.212891 -0.487305 0.211914 -0.976562 0.416016c-0.986328 0.394531 -1.98242 0.759766 -2.99707 1.07227
c-1.01465 0.313477 -2.04297 0.574219 -3.08008 0.803711l-4.72949 0.977539l-1.7334 9.89062l-0.15332 0.878906c-0.542969 0.0136719 -1.08594 0.00976562 -1.62891 0.00585938l-0.243164 -0.00585938l-0.15332 -0.878906l-1.73438 -9.89062l-4.72852 -0.977539
c-0.519531 -0.114258 -0.516602 -0.114258 -1.03613 -0.237305c-1.0293 -0.260742 -2.04785 -0.550781 -3.05371 -0.893555c-1.00586 -0.34375 -1.99023 -0.738281 -2.96387 -1.16113l-4.40137 -1.98828l-7.21582 6.98145l-0.640625 0.62207
c-0.446289 -0.308594 -0.883789 -0.629883 -1.32031 -0.952148l-0.195312 -0.148438l0.393555 -0.800781l4.41113 -9.02148l-3.25098 -3.57031c-0.351562 -0.397461 -0.350586 -0.396484 -0.698242 -0.800781c-0.679688 -0.81543 -1.33398 -1.65039 -1.94629 -2.51855
c-0.610352 -0.869141 -1.17578 -1.76562 -1.71582 -2.68066l-2.38965 -4.19629l-9.94336 1.4082l-0.884766 0.125c-0.177734 -0.511719 -0.342773 -1.02832 -0.506836 -1.5459l-0.0703125 -0.234375l0.789062 -0.416992l8.87109 -4.70605l-0.533203 -4.7998
c-0.0498047 -0.52832 -0.0498047 -0.525391 -0.0927734 -1.05664c-0.0712891 -1.06055 -0.109375 -2.11914 -0.09375 -3.18164s0.0859375 -2.12012 0.186523 -3.17773l0.533203 -4.7998l-8.87109 -4.70605l-0.789062 -0.417969
c0.155273 -0.518555 0.326172 -1.03418 0.49707 -1.54883l0.0800781 -0.230469l0.884766 0.125977l9.94336 1.40723c0.882812 -1.55176 1.75293 -3.11328 2.65918 -4.65234zM101.832 190.658c1.56641 -0.0302734 3.12695 -0.147461 4.67578 -0.383789
c3.14453 -0.480469 6.21484 -1.41211 9.0957 -2.75879c6.86328 -3.20605 12.5371 -8.74609 15.9102 -15.5293c1.41113 -2.83887 2.41699 -5.87695 2.97461 -8.99805c0.625977 -3.50488 0.693359 -7.10938 0.199219 -10.6338
c-0.479492 -3.42383 -1.49316 -6.76855 -2.99414 -9.88184c-1.75781 -3.64551 -4.17773 -6.96289 -7.10547 -9.75586c-3.0332 -2.89062 -6.60547 -5.21094 -10.4844 -6.79785c-4.02344 -1.64355 -8.35938 -2.48828 -12.7051 -2.48828
c-4.34668 0 -8.68066 0.844727 -12.7051 2.48828c-3.87988 1.58691 -7.4502 3.90723 -10.4844 6.79785c-2.92773 2.79297 -5.34863 6.11035 -7.10449 9.75586c-1.50195 3.11328 -2.51562 6.45801 -2.99512 9.88184c-0.493164 3.52441 -0.427734 7.12891 0.199219 10.6338
c0.558594 3.12109 1.5625 6.15918 2.97461 8.99805c3.37207 6.7832 9.04785 12.3232 15.9102 15.5293c2.87988 1.34668 5.95215 2.27832 9.09473 2.75879c1.5498 0.236328 3.11035 0.353516 4.67773 0.383789c0.432617 0.00292969 0.430664 0.00292969 0.866211 0z
M101.125 178.144c-2.98438 -0.0566406 -5.92676 -0.702148 -8.63379 -1.96777c-4.00195 -1.86914 -7.36914 -5.00488 -9.52539 -8.85938c-1.00586 -1.7998 -1.74414 -3.74512 -2.18359 -5.75977c-0.513672 -2.35938 -0.618164 -4.80859 -0.3125 -7.20312
c0.262695 -2.06445 0.833984 -4.08594 1.69141 -5.98242c1.04883 -2.31836 2.52246 -4.44141 4.32129 -6.24121c1.86133 -1.85938 4.06641 -3.37012 6.47559 -4.4248c2.4873 -1.08984 5.17969 -1.68262 7.89355 -1.75098
c2.73535 -0.0693359 5.47852 0.388672 8.03711 1.3623c2.46289 0.935547 4.74121 2.3418 6.69043 4.11328c1.88281 1.71094 3.4541 3.75781 4.6123 6.02051c0.984375 1.91895 1.66797 3.98926 2.02051 6.11719c0.381836 2.29785 0.381836 4.66016 0 6.95703
c-0.323242 1.95996 -0.929688 3.87109 -1.79199 5.66016c-1.99316 4.13184 -5.34277 7.5625 -9.4248 9.65527c-2.64551 1.35547 -5.54395 2.1084 -8.50684 2.27832c-0.454102 0.0205078 -0.90918 0.0283203 -1.36328 0.0253906z" />
    <glyph glyph-name="uniF102" unicode="&#xf102;" 
d="M39.2842 440.807h13.3271c2.08203 0 3.76172 -1.68066 3.76172 -3.7627v-27.5342l24.333 -42.1436c0.24707 -0.426758 0.368164 -0.879883 0.360352 -1.32031c-0.0234375 -1.32031 -1.08203 -2.52148 -2.56152 -2.52148h-65.1152
c-1.47852 0 -2.53809 1.20117 -2.56055 2.52148c-0.0078125 0.44043 0.113281 0.893555 0.359375 1.32031l24.334 42.1035v27.5742c0 2.08203 1.67969 3.7627 3.76172 3.7627zM40.6445 435.684v-26.8545c0 -0.450195 -0.134766 -0.891602 -0.360352 -1.28027
l-22.4922 -38.9014h56.3105l-22.4922 38.9414c-0.224609 0.388672 -0.359375 0.831055 -0.359375 1.28027v26.8145h-10.6064zM39.9248 397.983h12.0459l14.3682 -24.8535h-40.7422z" />
    <glyph glyph-name="uniF104" unicode="&#xf104;" 
d="M92.9795 142.028c-2.04785 0 -3.68652 0.819336 -3.68652 2.04883c0 1.22852 1.63867 2.04785 3.68652 2.04785h237.978c2.04785 0 3.68652 -0.819336 3.68652 -2.04785c0 -1.22949 -1.63867 -2.04883 -3.68652 -2.04883h-237.978zM119.604 167.015v118.374h35.6348
v-118.374h-35.6348zM172.852 167.015v162.611h35.6348v-162.611h-35.6348zM222.822 167.015v111.001h35.6357v-111.001h-35.6357zM276.07 167.015v73.7275h35.6357v-73.7275h-35.6357z" />
    <glyph glyph-name="uniF10C" unicode="&#xf10c;" 
d="M247.976 329.953c2.17969 -9.6377 4.81738 -20.042 5.3291 -30.0723c0.135742 -2.67871 0.294922 -6.19336 -0.823242 -8.47949c9.12207 -6.07031 4.65723 -18.6855 -0.679688 -25.1045c-1.9209 -2.30176 -6.28711 -5.16016 -7.2627 -8.01562
c-1.44141 -4.19824 -3.22363 -8.31836 -5.7666 -12.0342c-2.12598 -3.09668 -1.67188 -0.75293 -3.78906 -5.50488c-1.43359 -6.45508 -3.6084 -21.0732 -0.532227 -27.0742c4.03809 -7.86816 12.8857 -12.8496 20.209 -17.0352
c9.70801 -5.55469 20.5537 -9.62988 30.9209 -13.7705c9.54395 -3.81348 19.4971 -6.66016 28.6807 -11.3223c2.87891 -1.45801 5.7832 -2.88281 8.51172 -4.62012c2.19922 -1.40039 5.88965 -3.55957 6.41406 -6.38574v-22.2168h-245.801l0.167969 22.2168
c0.523438 2.82227 4.21484 4.98535 6.41406 6.38574c2.72754 1.7373 5.63184 3.1582 8.51172 4.62012c9.18262 4.66211 19.1406 7.50879 28.6797 11.3223c10.3672 4.14453 21.209 8.21582 30.9209 13.7705c7.31934 4.18555 16.167 9.16699 20.2051 17.0352
c3.08105 6.00488 1.36035 20.6846 -0.0771484 27.1318v0c-2.46191 1.59375 -4.16211 6.5293 -5.55859 8.99902c-1.4707 2.60938 -2.6543 5.42285 -4.44824 7.83984c-2.44531 3.29688 -6.52051 4.84082 -9.18359 7.92969c-1.77734 2.05566 -2.53516 4.60352 -3.41602 7.12695
c-1.05273 3.01465 -0.536133 5.46387 -1.00684 8.85156c-0.208984 1.4502 0.532227 3.13379 1.39258 4.3584c1.05664 1.50684 2.98145 1.80176 3.46875 3.71094c0.602539 2.36328 -0.724609 5.13184 -0.978516 7.4668
c-0.270508 2.49414 -0.917969 6.47168 -0.905273 8.97461c0.0410156 9.08008 -1.63867 17.2725 5.63184 24.4482c2.55566 2.51562 5.45996 4.69043 8.2334 6.95996v0c1.06445 3.39062 6.17188 5.47949 9.1582 6.61914c3.87891 1.47363 7.95898 2.30176 11.9355 3.48535
c12.002 3.5752 25.793 3.19434 36.3154 -4.21484c3.45312 -2.43262 8.21289 -0.34375 11.8496 -2.43262c3.50195 -2.01562 7.67969 -6.67285 7.27832 -10.9697z" />
    <glyph glyph-name="uniF108" unicode="&#xf108;" 
d="M25.5996 448h204.801v-128h128v-281.6h-332.801v409.6zM256 448l102.4 -102.4h-102.4v102.4zM76.7998 345.6v-25.5996h102.4v25.5996h-102.4zM76.7998 268.8v-25.5996h230.4v25.5996h-230.4zM76.7998 192v-25.5996h179.2v25.5996h-179.2zM76.7998 115.2v-25.6006h230.4
v25.6006h-230.4z" />
    <glyph glyph-name="uniF10B" unicode="&#xf10b;" 
d="M389.357 382.124c4.23535 -3.05957 20.2422 -12.9229 20.2383 -12.9229v-6.45898s-15.7568 -9.84766 -19.9961 -12.9023c-8.94629 -6.45605 -19.5469 -19.3623 -52.0479 -12.8867c-12.7471 2.53125 -18.0635 12.9189 -18.0635 12.9189v-0.237305l-319.496 0.171875
l0.0117188 32.7676l319.484 -0.175781v-0.237305s5.82031 10.3828 18.5752 12.9062c32.5137 6.43848 42.3564 -6.48438 51.2939 -12.9434zM409.399 183.746c5.22266 -80.1055 -91.6484 -145.346 -204.702 -145.346c-113.049 0 -204.697 65.0732 -204.697 145.346
c0 80.2695 91.6484 145.347 204.702 145.347c47.0586 0 96.6982 -2.90332 124.989 -30.2324c61.5908 -59.4863 -49.8564 -56.2588 -36.2295 -73.8428c16.0938 -20.7578 112.316 14.3564 115.938 -41.2715zM344.064 132.608c15.835 0 28.6719 11.001 28.6719 24.5752
s-12.8369 24.5762 -28.6719 24.5762c-15.8359 0 -28.6729 -11.002 -28.6729 -24.5762s12.8369 -24.5752 28.6729 -24.5752z" />
    <glyph glyph-name="uniF100" unicode="&#xf100;" 
d="M252.559 286.711c47.0068 -0.0507812 85.0566 -38.1064 85.1582 -85.1582c-0.101562 -47.0107 -38.1514 -85.0361 -85.1582 -85.1318c-47.0361 0.0908203 -85.082 38.1162 -85.1523 85.1318c0.0654297 47.0518 38.1162 85.1074 85.1523 85.1582zM480.074 357.301
c13.8301 0 25.0439 -11.1826 25.0439 -25.0029v-268.859c0 -13.8447 -11.2139 -25.0439 -25.0439 -25.0439h-455.03c-13.8203 0 -25.0439 11.1992 -25.0439 25.0439v268.859c0 13.8203 11.2285 25.0029 25.0439 25.0078h0.833008v17.3213
c0 6.05566 4.91992 10.9609 10.9814 10.9609h49.1484c6.06055 0 10.9805 -4.89941 10.9805 -10.9609v-17.3213h14.9717l6.7334 77.415c0 7.30859 5.93066 13.2793 13.29 13.2793h241.153c7.35938 0 13.3096 -5.9707 13.3096 -13.2793l6.72852 -77.4199h86.9004z
M61.5488 252.055c17.1992 0 31.0996 13.9316 31.0996 31.125c0 17.1797 -13.9004 31.1055 -31.0996 31.1055c-17.1797 0 -31.1006 -13.9258 -31.1006 -31.1055c0 -17.1934 13.9268 -31.125 31.1006 -31.125zM187.651 413.688c-7.95605 0 -14.4414 -6.50586 -14.4414 -14.457
c0 -7.99023 6.48535 -14.4766 14.4414 -14.4766h129.8c7.99121 0 14.4668 6.48145 14.4668 14.4766c0 7.95605 -6.46582 14.457 -14.4668 14.457h-129.8zM252.559 77.8545c68.333 0 123.698 55.3662 123.719 123.703c-0.0205078 68.3682 -55.3857 123.739 -123.719 123.739
c-68.3525 0 -123.708 -55.3711 -123.738 -123.744c0.0351562 -68.332 55.3857 -123.698 123.738 -123.698z" />
    <glyph glyph-name="uniF10A" unicode="&#xf10a;" 
d="M163.124 246.558c0 -46.0605 25.3613 -87.5605 65.7109 -116.449c-0.59668 0 -1.2002 -0.0507812 -1.80273 -0.0507812c-38.915 0 -75.6533 7.01172 -108.288 19.4668l-80.0801 -52.3916l17.7686 86.3604c-44.877 33.7568 -72.75 80.7051 -72.75 132.678
c0 102.789 108.941 186.112 243.35 186.112c100.148 0 186.146 -46.2666 223.51 -112.424c-25.9082 9.47266 -54.7471 14.7598 -85.1553 14.7598c-111.531 0 -202.263 -70.9199 -202.263 -158.062zM541.926 246.558c0 -38.5742 -22.8203 -74.4805 -62.752 -99.2891
l8.21777 -54.585l-55.5293 33.4941c-20.3867 -6.01758 -41.7676 -9.10449 -63.5947 -9.10449c-95.7773 0 -173.709 58.0908 -173.709 129.484c0 71.3887 77.9316 129.484 173.709 129.484c95.7783 0 173.658 -58.0957 173.658 -129.484z" />
    <glyph glyph-name="uniF106" unicode="&#xf106;" 
d="M306.381 314.88l11.0596 -9.01074l39.3213 -31.9492v-2.04785v-14.3359v-90.1123v-32.7676v-16.3838v-5.3252v-27.4434h-111.002v27.4434v5.3252v16.3838v32.7676v38.9121h-81.9199v-38.9121v-32.7676v-16.3838v-5.3252v-27.4434h-111.001v27.4434v5.3252v16.3838
v32.7676v104.448v2.04785l50.79 40.96l101.171 81.9199zM399.77 271.872h-25.3955v1.22852l-17.6123 13.9268l-38.9121 31.5391l-0.40918 0.40918l-112.641 90.9316l-113.05 -91.3408l-56.5244 -45.4658v-1.22852h-25.3955l64.7168 52.4287l130.253 105.268
l112.641 -91.3408v51.1992h39.3213v-82.7383z" />
    <glyph glyph-name="uniF103" unicode="&#xf103;" 
d="M0.00585938 317.033c-0.150391 3.31055 2.44141 6.02344 5.75781 6.02344h477.401c3.31641 0 5.87207 -2.70703 5.67285 -6.01758l-16.043 -272.622c-0.192383 -3.30957 -3.06836 -6.0166 -6.38379 -6.0166h-447.77c-3.31641 0 -6.15527 2.70703 -6.30078 6.02246z
M22.3008 350.946l10.2432 91.0605c0.374023 3.29785 3.38867 5.99316 6.7041 5.99316h143.797c3.31543 0 7.95215 -1.91699 10.291 -4.2627l31.4043 -31.4043c2.3457 -2.3457 6.97559 -4.2627 10.292 -4.2627h223.655c3.31641 0 6.0293 -2.71289 6.0293 -6.0293v-51.0586
c0 -3.31641 -2.71289 -6.0293 -6.0293 -6.0293h-431.033c-3.31543 0 -5.72656 2.70117 -5.35352 5.99316z" />
  </font>
</defs></svg>
